<?xml version="1.0" encoding="utf-8"?>
<!-- Generator: Adobe Illustrator 24.1.3, SVG Export Plug-In . SVG Version: 6.00 Build 0)  -->
<svg version="1.1" id="Layer_1" xmlns="http://www.w3.org/2000/svg" xmlns:xlink="http://www.w3.org/1999/xlink" x="0px" y="0px"
	 viewBox="0 0 597.69 546.6" style="enable-background:new 0 0 597.69 546.6;" xml:space="preserve">
<style type="text/css">
	.st0{fill:#F4CEDB;}
	.st1{fill:#E59FB9;}
	.st2{fill:#681948;}
	.st3{fill:#8C3762;}
	.st4{fill:#FB7600;}
	.st5{fill:#DB6B6B;}
	.st6{fill:#FFCB57;}
	.st7{fill:#C68A05;}
	.st8{fill:#F78686;}
	.st9{fill:#18287D;}
	.st10{fill:#7C1973;}
	.st11{fill:#E073A0;}
	.st12{fill:#F9A7A7;}
	.st13{fill:#2846A6;}
	.st14{fill:#0F1D5B;}
	.st15{fill:#FFFFFF;}
	.st16{fill:#E3E4FF;}
	.st17{fill:#FFDA88;}
	.st18{fill:#FFE9B8;}
	.st19{fill:#590F4B;}
	.st20{fill:#ECAB01;}
	.st21{fill:#A56289;}
	.st22{fill:#422634;}
	.st23{fill:#AA758B;}
	.st24{fill:#60374A;}
	.st25{fill:#7A4C5F;}
	.st26{fill:#7C1960;}
	.st27{fill:#D676A4;}
	.st28{fill:#0F0502;}
	.st29{fill:#FF9739;}
	.st30{fill:#FB8603;}
	.st31{fill:#ED1C24;}
	.st32{fill:#FB86BB;}
	.st33{fill:#E8E3DA;}
	.st34{fill:none;}
	.st35{fill:#FFE9F1;}
	.st36{clip-path:url(#SVGID_2_);}
	.st37{fill:#D7D9DD;}
	.st38{fill:#EDEEF0;}
	.st39{fill:#ECE8DC;}
	.st40{fill:#9FC159;}
	.st41{fill:#CEC4B9;}
	.st42{fill:#3BADDB;}
	.st43{fill:#FDFBEF;}
	.st44{fill:#BAD270;}
	.st45{fill:#6CC3EC;}
</style>
<g>
	<g>
		<rect x="-0.11" y="464.42" class="st35" width="597.94" height="10.53"/>
		<path class="st35" d="M521.04,336.32c12.87-30.02,19.39-61.93,19.39-94.98c0-32.61-6.39-64.25-18.99-94.04
			c-12.17-28.77-29.59-54.6-51.77-76.79c-22.19-22.18-48.02-39.6-76.79-51.77c-29.79-12.6-61.42-18.99-94.04-18.99
			s-64.25,6.39-94.04,18.99c-28.77,12.17-54.6,29.59-76.79,51.77c-22.18,22.18-39.6,48.02-51.77,76.79
			c-12.6,29.79-18.99,61.43-18.99,94.04c0,33.05,6.52,64.96,19.39,94.98H-0.11v10.53h597.94v-10.53H521.04z M67.8,241.34
			c0-127.4,103.65-231.06,231.06-231.06s231.06,103.65,231.06,231.06c0,33.13-6.85,65.07-20.36,94.98H88.16
			C74.65,306.41,67.8,274.47,67.8,241.34z"/>
	</g>
	<g>
		<defs>
			<path id="SVGID_1_" d="M510.62,230.33C510.62,97.33,388-7.04,249.64,24.11c-78.72,17.72-140.26,79.9-157.39,158.75
				c-11.47,52.82-3.22,103.27,18.8,145.4h43.97v0.21h53.73v-0.21h46.11l3.27-129.04c0.06-2.09-0.98-4.01-2.65-4.89
				c-11.41-6.02-19.59-19.41-19.65-38.26c-0.06-21.67,13.1-52.55,29.45-52.61c16.35-0.06,29.69,30.27,29.75,52.39
				c0.06,18.98-8.14,32.51-19.63,38.52c-1.67,0.88-2.72,2.8-2.66,4.9l3.27,128.99h48.6l5.46-121.01c0-3.22-1.53-6.25-4.13-8.15
				l-4.49-3.29c-8.68-6.37-8.71-21.47-7.4-32.16l5.43-62.83h3.8l0.83,66.53h2.53l1.65-66.53h5.3l0.83,66.53h2.53l1.65-66.53h5.3
				l0.83,66.53h2.54l1.65-66.53h3.82l5.43,62.83c1.32,10.69,1.29,25.79-7.4,32.16l-4.49,3.29c-2.6,1.9-4.13,4.93-4.13,8.15
				l5.46,121.01h36.96v0.21h53.73v-0.21h48.34C501.96,298.97,510.62,265.67,510.62,230.33z"/>
		</defs>
		<clipPath id="SVGID_2_">
			<use xlink:href="#SVGID_1_"  style="overflow:visible;"/>
		</clipPath>
		<g class="st36">
			<polygon class="st33" points="132.51,144.53 129.8,145.16 132.51,163.84 			"/>
			<g>
				<polygon class="st37" points="132.25,326.23 -56,399.33 -56,-43.9 132.25,-117 				"/>
				<polygon class="st38" points="132.25,326.23 301.23,392.45 301.23,-50.78 132.25,-117 				"/>
				<polygon class="st37" points="470.2,326.23 301.23,392.45 301.23,-50.78 470.2,-117 				"/>
				<polygon class="st38" points="470.2,326.23 657.69,399.33 657.69,-43.9 470.2,-117 				"/>
			</g>
			<g>
				<g>
					<g>
						<path class="st39" d="M639.17,372.43c-0.01-135.99,0-271.97,0-407.95C582.83-56.1,526.32-76.17,469.89-96.47
							c0.02,135.98,0.28,271.96,0.3,407.95C526.45,331.99,582.76,352.36,639.17,372.43z"/>
						<path class="st40" d="M470.19,288.45c7.15-3.44,10.64-5.15,17.48-8.54c-2.06-30.42-4.2-60.84-6.51-91.25
							c-4.37-5.38-6.59-7.11-11.04-12.48C470.17,213.92,470.18,250.71,470.19,288.45z"/>
						<path class="st41" d="M470.2,311.48c55.97,20.39,111.98,40.68,168.1,60.63c0-4.56,0-6.83,0-11.29
							c-46.33-51.98-92.49-103.95-141.22-153.52c1.66,29.29,3.21,58.57,4.64,87.86c-12.18,5.04-18.42,7.61-31.52,12.75
							C470.2,309.33,470.2,310.05,470.2,311.48z"/>
						<path class="st41" d="M513.87,154.27c-3.92-0.2-8.14-1-12.6-2.44c0.08,15.42,1.03,27.46,1.11,43.45
							c46.51,45.98,91.11,93.81,135.91,141.57c0.01-22.66,0-45.31,0.01-67.97C597.16,232.07,555.39,190.64,513.87,154.27z"/>
						<g>
							<path class="st41" d="M469.91-38.31c0.01,23.47,0.02,45.99,0.05,69.46c10.17-4.9,15.14-6.51,24.99-11.81
								c0.9-21.59,1.34-32.74,2.24-56.55C488.31-37.22,479.22-37.59,469.91-38.31z"/>
						</g>
						<g>
							<path class="st41" d="M510.04-37.44c-0.76,20.73-1.13,30.52-1.89,49.49c10.99-6.22,16.41-9.46,27.24-16.19
								c-3.8-13.36-5.7-20.19-9.52-34.25C520.67-37.95,515.39-37.63,510.04-37.44z"/>
						</g>
						<path class="st41" d="M617.55-43.42c-15.42-2-23.06-2.98-38.34-4.92c-11.45,3.42-23.46,6.05-35.97,7.9
							c2.77,13.69,4.15,20.34,6.9,33.32c29.4,3.9,58.81,7.74,88.19,11.79c0-15.59,0-23.65,0-40.5
							C629.97-38.89,625.83-40.41,617.55-43.42z"/>
					</g>
					<path class="st40" d="M469.51,124.46c3.76,5.84,9.59,11.37,16.93,15.5c16.78,9.46,35.06,8.08,40.86-3.07
						c5.79-11.16-3.12-27.86-19.89-37.32c-14.58-8.22-30.29-8.24-37.96-0.79L469.51,124.46z"/>
					<path class="st41" d="M562.57,13.55c4.68,21.16,7.02,31.3,11.67,51.12c-13.95,15.36-28.2,30.43-42.68,45.25
						c8.46,11.1,11.38,23.54,6.46,33.01c-2,3.87-5.13,6.84-9.03,8.95c34.86,30.92,74.7,65.78,109.31,96.62
						c0.01-74.44,0.01-148.87,0.02-223.32C613.09,21.19,587.83,17.38,562.57,13.55z"/>
					<path class="st40" d="M511.14,92.45c2.2,1.24,4.27,2.61,6.27,4.02c14.42-15.09,21.64-22.92,36.01-39.27
						c-5.55-18.31-8.33-27.64-13.94-47.03c-12.71,7.66-19.07,11.33-32.01,18.34c-1.03,25.27-1.54,37.3-2.57,60.86
						C506.99,90.28,509.07,91.29,511.14,92.45z"/>
					<path class="st40" d="M492.08,85.16c0.88-19.34,1.31-29.22,2.19-49.65c-9.57,4.93-14.4,7.31-24.29,11.91
						c0.02,15.56,0.02,23.37,0.04,38.15C476.35,83.61,484.01,83.45,492.08,85.16z"/>
					<path class="st41" d="M482.77,147.09c-4.72-2.67-8.97-5.76-12.69-9.12c0.02,9.05,0.02,14.52,0.03,24.45
						c7.93,9.52,11.83,13.32,19.53,22.86c-0.42-14.36-0.63-21.39-1.04-35.28C486.64,149.12,484.7,148.18,482.77,147.09z"/>
				</g>
				<g>
					<g>
						<path class="st39" d="M301.23,372.43c0-135.99,0-271.97,0-407.95C244.9-55.83,188.62-76.26,132.25-96.47
							c0.01,135.98,0.25,271.96,0.26,407.95C188.56,332.38,244.93,352.28,301.23,372.43z"/>
						<g>
							<g>
								<path class="st41" d="M227.71-62.08c-9.3,2.96-13.95,4.4-23.32,7.16c18.9,25.89,38.04,51.53,57.55,76.92
									c15.54-1.68,23.35-2.56,39.29-4.35c0-0.06,0-0.09,0-0.16c-16.87-23.14-33.16-46.74-48.97-70.69
									C242.44-56.75,237.54-58.53,227.71-62.08z"/>
								<path class="st41" d="M194.47-52.88c-14.07,12.1-21.15,17.76-35.66,28.42C174.64,0,190.65,24.33,206.84,48.54
									c17.47-8.74,26.08-13.32,43.47-22.99C231.38-0.37,212.81-26.51,194.47-52.88z"/>
								<g>
									<path class="st41" d="M132.45,172.44c0.01,8.64,0.01,12.99,0.01,21.86c11.7,9.75,23.24,17.57,34.1,22.37
										c2.15-0.2,3.22-0.3,5.35-0.5C156.58,198.66,148.75,189.96,132.45,172.44z"/>
								</g>
								<path class="st41" d="M292.65,369.34c-21.15-26.56-42.38-53.03-63.87-79.29c-8.24-9.81-12.35-14.65-20.64-24.29
									c-13.11,1.04-25.96-1.79-36.92-5.8c-1.48-0.54-3.01-1.14-4.53-1.76c-11.18-4.58-22.61-11.13-34.2-19.14
									c0.02,23.9,0.02,47.79,0.02,71.69c0.49,0.47,0.73,0.7,1.21,1.17C186.53,331.59,239.59,350.42,292.65,369.34z"/>
								<path class="st41" d="M230.84,134.55c-32.87-5.79-65.68-11.79-98.44-18.17c0,1.22,0,1.83,0,3.04
									c3.6,19.22,5.39,28.82,8.94,48.53c13.82,15.71,27.38,31.66,40.73,47.82c9.88,0.23,14.74,0.32,24.43,0.49
									c3.01-1.89,5.89-4.25,8.64-7.11c10.88-11.27,21-25.69,31.28-41.21C240.17,154.56,237.08,147.91,230.84,134.55z"/>
								<g>
									<path class="st41" d="M257.48,151.03c3.35-5.16,6.81-10.41,10.31-15.67c-7.1,0.23-10.64,0.36-17.67,0.62
										c2.84,6.17,4.27,9.24,7.12,15.4C257.33,151.27,257.41,151.15,257.48,151.03z"/>
									<path class="st41" d="M301.23,183.65c-0.7,1.03-13.24,15.56-18.78,23.56c2.01,4.33,3.01,6.5,5.04,10.86
										c5.5-1.43,8.26-2.12,13.84-3.49C301.32,200.4,301.23,197.6,301.23,183.65z"/>
								</g>
								<g>
									<path class="st41" d="M301.23,30.46c-13.81,1.79-20.58,1.1-34.07,2.81c13.45,18.14,20.21,24.07,34.07,41.7
										C301.23,56.07,301.23,50.9,301.23,30.46z"/>
								</g>
								<path class="st41" d="M275.09,124.62c7.86-11.35,16.22-22.64,25.46-33.35c-14.5-18.22-28.71-36.71-42.65-55.42
									c-17.82,9.99-26.62,14.73-44.43,23.81c10.31,21.99,20.71,43.92,31.2,65.81C256.76,125.11,262.81,124.94,275.09,124.62z"/>
								<path class="st41" d="M301.23,287.66c-8.75-19.83-17.61-39.6-26.56-59.33c-3.54-0.13-5.31-0.19-8.82-0.31
									c-4.25,5.4-8.59,10.58-13.09,15.39c-10.56,11.28-22.22,17.72-33.92,20.64c27.8,32.86,55.15,63.25,82.39,96.61
									C301.23,335.37,301.23,312.94,301.23,287.66z"/>
							</g>
							<g>
								<path class="st42" d="M301.23,115.54c-12.45,15.54-23.58,27.03-33.99,42.89c-1.37,2.1-2.72,4.16-4.08,6.22
									c5.8,9.07,9.81,18.2,13.34,27.42c4.04-5.98,7.1-12.95,12.24-18.25c5.1-5.26,7.6-7.73,12.49-12.47
									C301.23,143.48,301.23,133.92,301.23,115.54z"/>
								<path class="st42" d="M251.51,182.18c-8.89,13.08-17.76,25.24-27.29,35.21c-5.76,6.02-12.15,10.25-19.16,12.62
									c6.24,6.48,10.48,13.85,14.22,21.62c8.43-3.08,16.7-8.39,24.37-16.53c6.64-7.06,12.92-14.96,19.08-23.36
									C259.08,201.79,255.88,191.91,251.51,182.18z"/>
								<path class="st42" d="M189.64,232.72c-0.29-0.2-0.59-0.39-0.86-0.58c-6.38-0.36-13.18-1.98-20.43-4.92
									c-11.6-4.71-23.68-11.47-35.87-21.04c0.01,9.05,0.01,13.51,0.02,22.9c11.76,8.41,23.4,14.43,34.73,19.09
									c1.31,0.53,2.64,1.05,4.01,1.55c10.76,3.93,23.1,6.45,35.53,4.91C202.83,246.38,197.96,237.99,189.64,232.72z"/>
							</g>
						</g>
					</g>
					<path class="st40" d="M144.02,36.85c-2.49-3.96-6.56-6.44-11.51-7.5v43.2C144.87,61.35,150.02,46.43,144.02,36.85z"/>
					<path class="st41" d="M196.55,62.94c-15.22-0.47-29.43-2.17-45.06-3.11c-4.05,7.79-10.61,15.45-19.13,21.75
						c0.01,9.71,0.02,15.01,0.02,25.06c31.15,5.97,62.35,11.57,93.59,16.98C216.1,103.44,206.28,83.21,196.55,62.94z"/>
					<path class="st40" d="M152.89,30.81c3.5,5.58,4.03,12.59,2.14,19.91c14.06,0.59,21.41,0.79,35.43,1.11
						c-16.22-23.37-32.34-46.82-48.36-70.34c-3.9,0.36-5.86,0.53-9.81,0.85c0.01,15.77,0.02,23.63,0.02,38.05
						C141.27,20.8,148.76,24.24,152.89,30.81z"/>
				</g>
			</g>
			<g>
				<g>
					<g>
						<path class="st43" d="M470.2,311.48c-0.02-135.99-0.28-271.97-0.3-407.95c-56.28,20.13-112.44,40.63-168.67,60.94
							c0,107.41,0,243.39,0,407.95C357.51,351.99,413.83,331.66,470.2,311.48z"/>
						<g>
							<g>
								<path class="st44" d="M394.08,136.42c-30.95,30.66-61.84,61.39-92.86,91.97c0,4.53,0,6.82,0,11.41
									c15.8,22.22,30.61,45.2,44.17,68.96c17.07,7.38,25.4,11.35,42.13,19.8c8.17-10.7,18.97-19.14,30.95-23.45
									c13.71-4.93,26.23-3.43,35.01,3.33c6.63-8.46,9.96-11.67,16.71-19.99c-0.01-37.1-0.04-75.17-0.07-112.27
									C444.81,162.85,419.51,149.49,394.08,136.42z"/>
								<path class="st44" d="M445.95,320.16c-6.63-5.99-16.56-7.58-27.53-3.63c-10.97,3.94-20.69,12.59-27.13,23.29
									C412.82,332.05,423.54,328.2,445.95,320.16z"/>
							</g>
							<g>
								<path class="st33" d="M347.75,99.06c14.31-14.45,21.44-21.7,35.64-36.32c15.99,10.85,23.88,16.07,39.68,26.4
									c-12.37,14.85-18.58,22.22-30.98,36.99C374.53,115.38,365.69,110.06,347.75,99.06z"/>
								<g>
									<path class="st33" d="M301.23,214.76c28.45-27.3,56.8-54.72,85.14-82.16c-19.13-9.7-28.78-14.48-48.35-24.31
										c-0.47,0.34-0.69,0.52-1.16,0.86c-11.86,23.82-23.25,47.81-34.46,71.97c-0.39,0.85-0.78,1.68-1.18,2.52
										C301.23,192.3,301.23,198.47,301.23,214.76z"/>
								</g>
								<g>
									<path class="st33" d="M313.18,20.38c-4.77,4.04-7.17,6.06-11.96,10.08c0,18.48,0,27.31,0,44.51
										c3.47,1.86,5.19,2.78,8.65,4.61c8.39-15,17.38-29.93,27.2-44.49C327.55,29.38,322.77,26.45,313.18,20.38z"/>
									<path class="st33" d="M350.13,84.45c10.43-10.62,15.63-15.95,26.01-26.67c-2.89-1.65-4.35-2.47-7.26-4.12
										C362.3,63.59,356.08,73.91,350.13,84.45z"/>
								</g>
								<g>
									<path class="st33" d="M469.91-38.64c-9.26,6.15-18.72,12.1-28.32,17.77C428.65-13.2,416.72-3.52,405.7,7.57
										c-5.99,15.59-8.99,23.18-14.99,38.12c18.44,11.12,27.51,16.41,45.74,26.81c13.49-16.42,20.23-24.68,33.51-41.35
										C469.94,7.89,469.92-15.37,469.91-38.64z"/>
								</g>
								<g>
									<path class="st33" d="M352.9-54.21c-9.52,19.13-19.3,38.12-29.37,56.96c9.92,6.82,14.87,10.1,24.72,16.47
										c19.02-26,41.09-49.73,66.7-68.72c4.29-12.15,6.43-18.35,10.68-31.07C401.39-71.8,377.14-63.01,352.9-54.21z"/>
								</g>
								<path class="st33" d="M371.11,347.1c-16.46-8.64-24.72-12.67-41.72-20.14c-11.09-19.45-16.73-22.19-28.16-39.3
									c0,26.41,0,46.58,0,72.99c5.47,2.67,8.18,4.03,13.56,6.85C337.94,359.09,348.97,355.1,371.11,347.1z"/>
							</g>
							<g>
								<path class="st45" d="M301.23,161.36c8.77-18.71,17.66-37.4,27.19-55.75c-0.9-0.59-1.76-1.21-2.57-1.9
									c-3.36-2.82-7.54-8.61-13.16-10.15c-3.94,7.33-7.75,14.66-11.46,21.98C301.23,134.14,301.23,143.2,301.23,161.36z"/>
								<path class="st45" d="M345.57,38.67C336.66,51.82,328.42,65.35,320.7,79c6.88,1.65,11.9,6.7,16.23,10.6
									c8-14.59,16.5-28.87,25.72-42.53C357.23,44.02,350.98,41.89,345.57,38.67z"/>
								<path class="st45" d="M469.9-74.37c-11.56,8.25-23.7,16.22-36.19,23.83c-30.59,18.63-56.24,45.17-77.69,74.41
									c5.31,3.41,11.64,5.43,16.97,8.65c18.23-24.73,40.14-47.03,66.1-62.61c10.43-6.26,20.78-12.8,30.83-19.62
									C469.9-59.34,469.91-64.27,469.9-74.37z"/>
							</g>
						</g>
					</g>
					<path class="st44" d="M469.59,98.56c-1.27,1.18-2.35,2.52-3.16,4.09c-3.32,6.38-1.8,14.57,3.23,22.2L469.59,98.56z"/>
					<path class="st44" d="M470.01,85.57c-0.01-14.81-0.02-22.55-0.04-38.15c-10,12.36-15.04,17.59-25.15,29.84
						c7.86,4.44,12.23,6.87,19.39,10.81C465.99,87.04,467.94,86.21,470.01,85.57z"/>
					<path class="st33" d="M460.05,126.38l0.01,0.26c-4.64-7.02-7.07-14.41-6.72-21.14c-7.95-4.67-13.07-7.72-22.04-13.11
						c-11.62,13.83-17.44,20.7-29.09,34.47c22.66,11.8,45.25,23.73,67.89,35.55c-0.01-10-0.01-15.33-0.03-24.45
						C466.08,134.35,462.7,130.42,460.05,126.38z"/>
				</g>
				<g>
					<g>
						<path class="st43" d="M132.51,311.48c-0.01-135.99-0.25-271.97-0.26-407.95c-56.1,21-112.98,39.58-168.97,60.94
							c0,135.98,0,271.97,0,407.95C19.6,351.81,76.03,331.58,132.51,311.48z"/>
						<path class="st33" d="M79.36,330.42c-16.95-5.59-24.96-8.37-41.66-13.41c-17.5,15.85-35.02,31.68-52.61,47.42
							C16.48,353.01,47.9,341.67,79.36,330.42z"/>
						<path class="st33" d="M-36.24,363.55c22.52-21.56,44.77-43.4,66.99-65.3c-15.91-12.38-24.07-18.09-41.29-28.58
							c-8.24-23.24-16.67-46.34-25.72-69.26C-36.25,254.79-36.25,309.17-36.24,363.55z"/>
						<path class="st33" d="M-36.3-35.68c0.01,28.27,0.01,56.54,0.01,84.8C8.61,29.97,53.94,12,99.18-6.27
							c-5.23-24.25-10.03-48.57-14.77-72.94C44.05-65.09,3.59-51.22-36.3-35.68z"/>
						<g>
							<path class="st33" d="M20.8,186.25c-13.44-16.77-33.55-25.46-54.2-27.61c14.41,31.7,28.34,63.45,41.36,95.8
								c17.95,12.25,26.42,18.89,43.32,33.2c18.71-16.55,37.57-32.86,56.64-48.97C74.2,233.25,42.47,213.3,20.8,186.25z"/>
							<path class="st33" d="M132.45,174.05c-2.1-0.77-3.15-1.17-5.22-1.95c-3.99-21.15-5.89-31.33-9.61-51.83
								c-26.73,4.49-53.5,8.68-80.23,13.11c8.82,5.53,16.88,12.8,23.7,21.8c17.09,22.53,43.67,37.36,71.38,40.14
								C132.46,186.71,132.46,182.45,132.45,174.05z"/>
						</g>
						<path class="st33" d="M132.51,311.48c0-23.9-0.01-47.81-0.01-71.71c-2.78,0.17-5.52,0.25-8.21,0.23
							c-20.91,17.65-41.43,35.82-61.53,54.46c22.81,6.21,45.64,12.01,68.64,17.41C131.84,311.71,132.06,311.64,132.51,311.48z"/>
						<path class="st45" d="M-16.15,149.04c8.3-5.53,16.65-11.47,25.16-16.29c-15.45-5.29-31.7-6.99-45.72-6.97c0,8.86,0,13.24,0,22
							c6.14,0.37,12.53,1.16,18.94,2.5C-17.28,149.85-16.74,149.44-16.15,149.04z"/>
						<path class="st45" d="M132.47,206.18c-32.45-5.71-60.07-15.99-81.08-43.54c-7.94-10.42-17.65-18.28-28.24-23.84
							c-2.93,1.1-5.81,2.38-8.55,3.98c-6.12,3.54-12.16,7.49-18.2,11.52c12.92,4.72,24.99,12.47,34.19,24.39
							c26.14,33.82,61.37,46.98,101.91,50.38C132.49,219.75,132.49,215.18,132.47,206.18z"/>
					</g>
					<path class="st44" d="M132.79,29.49c-8.91-2.13-20.87,0.51-31.79,7.95C84.32,48.81,76.41,66.97,83.34,78.01
						c6.93,11.03,26.07,10.77,42.75-0.59c2.43-1.65,4.65-3.47,6.7-5.38V29.49z"/>
					<path class="st44" d="M132.31,20.4c-0.01-15.08-0.02-21.33-0.03-37.96c-8,7.2-12.15,9.72-20.62,16.91
						c0.88,9.85,1.36,14.95,2.22,23.96C120.31,21.1,126.6,20.14,132.31,20.4z"/>
					<path class="st33" d="M74.74,84.04c-8.96-14.28,1.27-37.77,22.86-52.47c1.91-1.3,3.85-2.45,5.8-3.53
						c-1.2-8.08-1.88-12.76-3.16-21.67C54.66,25.02,8.99,43.36-36.28,62.83c0,21.95,0.01,32.38,0.01,52.93
						c20.71-0.5,41.5,2.69,60.77,10.82c30.66-5.4,61.35-10.64,92.01-15.98c-1.28-7.6-1.94-11.57-3.15-18.93
						C96.94,97.22,81.43,94.72,74.74,84.04z"/>
					<path class="st33" d="M130.03,83.29c-2.12,1.44-4.26,2.7-6.42,3.87c1.13,8.6,1.77,13.33,3,22.28c2.3-1.27,3.46-1.9,5.77-3.17
						c-0.01-9.97-0.01-15.32-0.02-24.68C131.59,82.16,130.84,82.74,130.03,83.29z"/>
				</g>
			</g>
		</g>
	</g>
	<g>
		<path class="st35" d="M53.92,399.4c1.8,0,3.32,0.62,4.56,1.86c1.24,1.24,1.86,2.76,1.86,4.56s-0.62,3.32-1.86,4.56
			c-1.24,1.24-2.76,1.86-4.56,1.86H39.78v32.14c0,1.8-0.62,3.32-1.86,4.56s-2.76,1.86-4.56,1.86c-1.8,0-3.32-0.62-4.56-1.86
			c-1.24-1.24-1.86-2.76-1.86-4.56v-77.14c0-1.8,0.62-3.32,1.86-4.56c1.24-1.24,2.76-1.86,4.56-1.86h24.49
			c1.8,0,3.32,0.62,4.56,1.86c1.24,1.24,1.86,2.76,1.86,4.56c0,1.71-0.62,3.21-1.86,4.5c-1.24,1.29-2.76,1.93-4.56,1.93H39.78v25.71
			H53.92z"/>
		<path class="st35" d="M76.03,367.26c0-1.8,0.62-3.32,1.86-4.56c1.24-1.24,2.76-1.86,4.56-1.86c1.8,0,3.32,0.62,4.56,1.86
			c1.24,1.24,1.86,2.76,1.86,4.56v77.14c0,1.8-0.62,3.32-1.86,4.56s-2.76,1.86-4.56,1.86c-1.8,0-3.32-0.62-4.56-1.86
			c-1.24-1.24-1.86-2.76-1.86-4.56V367.26z"/>
		<path class="st35" d="M122.58,444.4c0,1.8-0.62,3.32-1.86,4.56s-2.76,1.86-4.56,1.86c-1.8,0-3.32-0.62-4.56-1.86
			c-1.24-1.24-1.86-2.76-1.86-4.56V367.2c0-1.8,0.62-3.32,1.86-4.56c1.24-1.24,2.76-1.86,4.56-1.86c1.76,0,3.3,0.62,4.63,1.86
			c0.43,0.51,0.79,1.03,1.09,1.54l23.85,51.3V367.2c0-1.8,0.62-3.32,1.86-4.56c1.24-1.24,2.76-1.86,4.56-1.86
			c1.8,0,3.32,0.62,4.56,1.86c1.24,1.24,1.86,2.76,1.86,4.56v77.27c0,1.76-0.62,3.24-1.86,4.44c-1.24,1.29-2.76,1.93-4.56,1.93
			c-1.8,0-3.32-0.64-4.56-1.93c-0.56-0.6-1.03-1.31-1.42-2.12l-23.59-50.91V444.4z"/>
		<path class="st35" d="M200.68,437.97c1.84-0.17,3.43-0.9,4.76-2.19c1.5-1.5,2.25-3.3,2.25-5.4V381.4c0-2.1-0.76-3.91-2.28-5.43
			c-1.52-1.52-3.33-2.28-5.43-2.28h-7.71v70.71c0,1.8-0.62,3.32-1.86,4.56s-2.76,1.86-4.56,1.86c-1.8,0-3.32-0.62-4.56-1.86
			c-1.24-1.24-1.86-2.76-1.86-4.56v-77.14c0-1.8,0.62-3.32,1.86-4.56c1.24-1.24,2.76-1.86,4.56-1.86h14.14c5.7,0,10.55,2,14.56,6.01
			c4.01,4.01,6.01,8.86,6.01,14.56v48.99c0,5.7-2.01,10.52-6.04,14.46c-3.56,3.64-7.87,5.63-12.92,5.98c-2.01,0-3.64-0.62-4.89-1.86
			s-1.86-2.76-1.86-4.56s0.64-3.3,1.93-4.5C197.79,438.79,199.1,438.15,200.68,437.97z"/>
		<path class="st35" d="M296.34,437.97c1.84-0.17,3.43-0.9,4.76-2.19c1.5-1.5,2.25-3.3,2.25-5.4V381.4c0-2.1-0.76-3.91-2.28-5.43
			c-1.52-1.52-3.33-2.28-5.43-2.28h-7.71v70.71c0,1.8-0.62,3.32-1.86,4.56s-2.76,1.86-4.56,1.86c-1.8,0-3.32-0.62-4.56-1.86
			c-1.24-1.24-1.86-2.76-1.86-4.56v-77.14c0-1.8,0.62-3.32,1.86-4.56c1.24-1.24,2.76-1.86,4.56-1.86h14.14c5.7,0,10.55,2,14.56,6.01
			c4.01,4.01,6.01,8.86,6.01,14.56v48.99c0,5.7-2.01,10.52-6.04,14.46c-3.56,3.64-7.87,5.63-12.92,5.98c-2.01,0-3.64-0.62-4.89-1.86
			s-1.86-2.76-1.86-4.56s0.64-3.3,1.93-4.5C293.45,438.79,294.75,438.15,296.34,437.97z"/>
		<path class="st35" d="M331.89,367.26c0-1.8,0.62-3.32,1.86-4.56c1.24-1.24,2.76-1.86,4.56-1.86c1.8,0,3.32,0.62,4.56,1.86
			c1.24,1.24,1.86,2.76,1.86,4.56v77.14c0,1.8-0.62,3.32-1.86,4.56s-2.76,1.86-4.56,1.86c-1.8,0-3.32-0.62-4.56-1.86
			c-1.24-1.24-1.86-2.76-1.86-4.56V367.26z"/>
		<path class="st35" d="M378.43,444.4c0,1.8-0.62,3.32-1.86,4.56s-2.76,1.86-4.56,1.86c-1.8,0-3.32-0.62-4.56-1.86
			c-1.24-1.24-1.86-2.76-1.86-4.56V367.2c0-1.8,0.62-3.32,1.86-4.56c1.24-1.24,2.76-1.86,4.56-1.86c1.76,0,3.3,0.62,4.63,1.86
			c0.43,0.51,0.79,1.03,1.09,1.54l23.85,51.3V367.2c0-1.8,0.62-3.32,1.86-4.56c1.24-1.24,2.76-1.86,4.56-1.86
			c1.8,0,3.32,0.62,4.56,1.86c1.24,1.24,1.86,2.76,1.86,4.56v77.27c0,1.76-0.62,3.24-1.86,4.44c-1.24,1.29-2.76,1.93-4.56,1.93
			c-1.8,0-3.32-0.64-4.56-1.93c-0.56-0.6-1.03-1.31-1.42-2.12l-23.59-50.91V444.4z"/>
		<path class="st35" d="M435.26,367.26c0-1.8,0.62-3.32,1.86-4.56c1.24-1.24,2.76-1.86,4.56-1.86c1.8,0,3.32,0.62,4.56,1.86
			c1.24,1.24,1.86,2.76,1.86,4.56v77.14c0,1.8-0.62,3.32-1.86,4.56s-2.76,1.86-4.56,1.86c-1.8,0-3.32-0.62-4.56-1.86
			c-1.24-1.24-1.86-2.76-1.86-4.56V367.26z"/>
		<path class="st35" d="M481.8,444.4c0,1.8-0.62,3.32-1.86,4.56s-2.76,1.86-4.56,1.86c-1.8,0-3.32-0.62-4.56-1.86
			c-1.24-1.24-1.86-2.76-1.86-4.56V367.2c0-1.8,0.62-3.32,1.86-4.56c1.24-1.24,2.76-1.86,4.56-1.86c1.76,0,3.3,0.62,4.63,1.86
			c0.43,0.51,0.79,1.03,1.09,1.54l23.85,51.3V367.2c0-1.8,0.62-3.32,1.86-4.56c1.24-1.24,2.76-1.86,4.56-1.86
			c1.8,0,3.32,0.62,4.56,1.86c1.24,1.24,1.86,2.76,1.86,4.56v77.27c0,1.76-0.62,3.24-1.86,4.44c-1.24,1.29-2.76,1.93-4.56,1.93
			c-1.8,0-3.32-0.64-4.56-1.93c-0.56-0.6-1.03-1.31-1.42-2.12l-23.59-50.91V444.4z"/>
		<path class="st35" d="M571.42,365.78c1.2,1.29,1.8,2.79,1.8,4.5c0,1.8-0.62,3.32-1.86,4.56s-2.76,1.86-4.56,1.86
			c-1.8,0-3.32-0.64-4.56-1.93c-1.59-1.58-3.45-2.38-5.59-2.38c-2.14,0-3.96,0.75-5.46,2.25c-1.5,1.5-2.25,3.32-2.25,5.46v50.14
			c0,2.14,0.75,3.96,2.25,5.46c1.5,1.5,3.32,2.25,5.46,2.25h7.71v-24.43h-1.29c-1.8,0-3.32-0.64-4.56-1.93
			c-1.24-1.29-1.86-2.79-1.86-4.5c0-1.8,0.62-3.32,1.86-4.56c1.24-1.24,2.76-1.86,4.56-1.86h7.78c1.8,0,3.31,0.63,4.53,1.9
			c1.22,1.26,1.83,2.78,1.83,4.53v37.29c0,1.71-0.62,3.21-1.86,4.5c-1.24,1.29-2.76,1.93-4.56,1.93h-14.14
			c-5.66,0-10.5-1.99-14.53-5.98s-6.04-8.83-6.04-14.53v-50.27c0-5.7,2-10.55,6.01-14.56c4.01-4.01,8.86-6.01,14.56-6.01
			C562.33,359.48,567.26,361.58,571.42,365.78z"/>
	</g>
	<g>
		<path class="st35" d="M143.72,524.34c-0.44,1-1.11,1.96-2.01,2.88c-0.9,0.92-1.93,1.8-3.09,2.64c-2.2,1.52-4.55,2.73-7.05,3.63
			s-5.15,1.35-7.95,1.35c-0.92,0-2.01-0.03-3.27-0.09c-1.26-0.06-2.45-0.27-3.57-0.63s-2.07-0.91-2.85-1.65
			c-0.78-0.74-1.17-1.81-1.17-3.21c0-1.92,0.39-3.89,1.17-5.91s1.88-3.91,3.3-5.67c1.42-1.76,3.1-3.29,5.04-4.59
			c1.94-1.3,4.05-2.19,6.33-2.67c-1.8-0.6-3.07-1.48-3.81-2.64c-0.74-1.16-1.11-2.44-1.11-3.84c0-2.28,0.48-4.29,1.44-6.03
			s2.27-3.21,3.93-4.41c1.66-1.2,3.58-2.11,5.76-2.73c2.18-0.62,4.51-0.93,6.99-0.93c1.56,0,2.88,0.06,3.96,0.18
			s1.94,0.33,2.58,0.63c0.64,0.3,1.1,0.7,1.38,1.2c0.28,0.5,0.42,1.13,0.42,1.89c0,0.28-0.02,0.58-0.06,0.9
			c-0.04,0.32-0.1,0.64-0.18,0.96l-10.2,3.72c0.2-0.28,0.4-0.61,0.6-0.99c0.2-0.38,0.38-0.76,0.54-1.14
			c0.16-0.38,0.29-0.74,0.39-1.08c0.1-0.34,0.15-0.61,0.15-0.81c0-0.6-0.64-0.9-1.92-0.9c-0.64,0-1.33,0.28-2.07,0.84
			c-0.74,0.56-1.42,1.3-2.04,2.22c-0.62,0.92-1.14,1.95-1.56,3.09c-0.42,1.14-0.63,2.29-0.63,3.45c0,0.48,0.06,0.97,0.18,1.47
			c0.12,0.5,0.35,0.98,0.69,1.44c0.34,0.46,0.82,0.91,1.44,1.35c0.62,0.44,1.41,0.84,2.37,1.2l-1.14,2.52
			c-1.32,0.44-2.51,0.92-3.57,1.44c-1.06,0.52-2.01,1.08-2.85,1.68c-0.84,0.6-1.61,1.25-2.31,1.95c-0.7,0.7-1.37,1.43-2.01,2.19
			c-0.6,0.72-1.13,1.47-1.59,2.25c-0.46,0.78-0.86,1.56-1.2,2.34c-0.34,0.78-0.6,1.52-0.78,2.22c-0.18,0.7-0.27,1.33-0.27,1.89
			c0,0.84,0.28,1.5,0.84,1.98c0.56,0.48,1.46,0.72,2.7,0.72c1.4,0,2.93-0.23,4.59-0.69c1.66-0.46,3.26-1.08,4.8-1.86
			c1.54-0.78,2.92-1.69,4.14-2.73c1.22-1.04,2.11-2.16,2.67-3.36L143.72,524.34z"/>
		<path class="st35" d="M173.84,524.34c-0.52,1.2-1.46,2.42-2.82,3.66c-1.36,1.24-2.91,2.37-4.65,3.39
			c-1.74,1.02-3.56,1.85-5.46,2.49c-1.9,0.64-3.63,0.96-5.19,0.96c-1.4,0-2.48-0.35-3.24-1.05c-0.76-0.7-1.14-1.63-1.14-2.79
			c0-0.72,0.25-1.72,0.75-3c0.5-1.28,1.1-2.68,1.8-4.2c0.7-1.52,1.43-3.04,2.19-4.56c0.76-1.52,1.38-2.88,1.86-4.08
			c0.12-0.36,0.2-0.64,0.24-0.84c0.04-0.2,0.06-0.38,0.06-0.54c0-0.48-0.28-0.72-0.84-0.72c-0.52,0-0.98,0.13-1.38,0.39
			c-0.4,0.26-0.7,0.63-0.9,1.11l-8.88,20.1h-10.02l11.88-26.76l6.3,3.3c1-0.96,2.22-1.55,3.66-1.77c1.44-0.22,2.84-0.33,4.2-0.33
			c1.52,0,2.69,0.4,3.51,1.2c0.82,0.8,1.23,1.9,1.23,3.3c0,0.76-0.16,1.65-0.48,2.67c-0.32,1.02-0.72,2.09-1.2,3.21
			c-0.48,1.12-0.99,2.25-1.53,3.39s-1.01,2.21-1.41,3.21c-0.28,0.56-0.42,1.02-0.42,1.38c0,0.6,0.36,0.9,1.08,0.9
			c0.64,0,1.42-0.22,2.34-0.66c0.92-0.44,1.82-0.98,2.7-1.62c0.88-0.64,1.68-1.33,2.4-2.07c0.72-0.74,1.22-1.41,1.5-2.01
			L173.84,524.34z"/>
		<path class="st35" d="M190.46,524.34c-0.84,2.12-2.62,4.1-5.34,5.94c-1.44,0.96-2.99,1.8-4.65,2.52c-1.66,0.72-3.25,1.22-4.77,1.5
			l-1.8,4.02c-0.48,1.12-1.13,2.15-1.95,3.09c-0.82,0.94-1.76,1.74-2.82,2.4c-1.06,0.66-2.2,1.17-3.42,1.53
			c-1.22,0.36-2.47,0.54-3.75,0.54c-2.48,0-4.21-0.4-5.19-1.2c-0.98-0.8-1.47-1.94-1.47-3.42c0-1.8,0.44-3.39,1.32-4.77
			c0.88-1.38,1.99-2.59,3.33-3.63c1.34-1.04,2.81-1.92,4.41-2.64c1.6-0.72,3.12-1.32,4.56-1.8l9.18-20.52l7.56,4.14l-7.32,16.5
			c1.12-0.04,2.23-0.29,3.33-0.75c1.1-0.46,2.12-1.02,3.06-1.68c0.94-0.66,1.76-1.36,2.46-2.1c0.7-0.74,1.19-1.41,1.47-2.01
			L190.46,524.34z M167.18,533.28c-0.8,0.4-1.58,0.87-2.34,1.41c-0.76,0.54-1.44,1.13-2.04,1.77c-0.6,0.64-1.08,1.28-1.44,1.92
			c-0.36,0.64-0.54,1.24-0.54,1.8c0,0.52,0.34,0.78,1.02,0.78c0.72,0,1.52-0.55,2.4-1.65C165.12,538.21,166.1,536.2,167.18,533.28z
			 M191.84,499.38c0,0.76-0.25,1.45-0.75,2.07c-0.5,0.62-1.12,1.14-1.86,1.56s-1.55,0.75-2.43,0.99c-0.88,0.24-1.7,0.36-2.46,0.36
			c-1.16,0-2.13-0.25-2.91-0.75s-1.17-1.11-1.17-1.83c0-0.64,0.22-1.27,0.66-1.89c0.44-0.62,1.02-1.17,1.74-1.65
			c0.72-0.48,1.53-0.86,2.43-1.14c0.9-0.28,1.81-0.42,2.73-0.42c1,0,1.92,0.24,2.76,0.72C191.42,497.88,191.84,498.54,191.84,499.38
			z"/>
		<path class="st35" d="M221.36,514.92c-2.2,2.32-5.64,3.72-10.32,4.2c-1.36,3.48-2.68,6.26-3.96,8.34
			c-1.28,2.08-2.61,3.66-3.99,4.74c-1.38,1.08-2.85,1.79-4.41,2.13c-1.56,0.34-3.26,0.51-5.1,0.51c-2.92,0-4.96-0.43-6.12-1.29
			c-1.16-0.86-1.74-2.03-1.74-3.51c0-1.44,0.5-3.22,1.5-5.34l2.76-6c0.84-1.8,1.71-3.32,2.61-4.56c0.9-1.24,1.84-2.23,2.82-2.97
			c0.98-0.74,2-1.27,3.06-1.59c1.06-0.32,2.17-0.48,3.33-0.48c0.68,0,1.2,0.01,1.56,0.03c0.36,0.02,0.66,0.07,0.9,0.15
			c1.44-1.32,3.22-1.98,5.34-1.98c1.36,0,2.36,0.28,3,0.84c0.64,0.56,0.96,1.36,0.96,2.4c0,1.12-0.36,2.46-1.08,4.02
			c0.4,0.08,0.75,0.15,1.05,0.21c0.3,0.06,0.59,0.09,0.87,0.09c0.8,0,1.65-0.15,2.55-0.45s1.85-0.83,2.85-1.59L221.36,514.92z
			 M203.12,516.72c-0.4-0.24-0.69-0.59-0.87-1.05c-0.18-0.46-0.27-0.95-0.27-1.47c0-0.36,0.02-0.64,0.06-0.84
			c-0.4,0.2-0.75,0.49-1.05,0.87s-0.63,1.01-0.99,1.89l-5.52,12.6c-0.2,0.44-0.3,0.84-0.3,1.2c0,0.76,0.34,1.14,1.02,1.14
			c0.44,0,0.87-0.15,1.29-0.45s0.77-0.73,1.05-1.29L203.12,516.72z M209,514.02c0.12-0.2,0.23-0.46,0.33-0.78
			c0.1-0.32,0.15-0.64,0.15-0.96c0-0.4-0.07-0.73-0.21-0.99c-0.14-0.26-0.39-0.39-0.75-0.39c-0.96,0-1.44,0.46-1.44,1.38
			C207.08,513.44,207.72,514.02,209,514.02z"/>
		<path class="st35" d="M245.3,524.34c-0.44,0.96-1.16,1.96-2.16,3c-1,1.04-2.12,1.98-3.36,2.82c-1.24,0.84-2.5,1.54-3.78,2.1
			c-1.28,0.56-2.38,0.84-3.3,0.84c-0.64,0-1.24-0.16-1.8-0.48l-2.46,5.7c-2.12,5.04-6.44,7.56-12.96,7.56
			c-4.52,0-6.78-1.46-6.78-4.38c0-1.08,0.24-2.1,0.72-3.06c0.48-0.96,1.13-1.83,1.95-2.61c0.82-0.78,1.77-1.46,2.85-2.04
			c1.08-0.58,2.22-1.01,3.42-1.29c-2.96-0.56-4.44-2.4-4.44-5.52c0-0.8,0.13-1.74,0.39-2.82c0.26-1.08,0.63-2.14,1.11-3.18
			l5.82-13.08l7.08,4.14l-5.7,12.84c-0.32,0.72-0.48,1.32-0.48,1.8c0,0.56,0.24,0.84,0.72,0.84c1.04,0,1.84-0.6,2.4-1.8l8.46-18.96
			l7.08,5.28l-5.94,13.26c-0.44,0.88-0.66,1.6-0.66,2.16c0,0.6,0.34,0.9,1.02,0.9c0.64,0,1.41-0.22,2.31-0.66
			c0.9-0.44,1.8-0.98,2.7-1.62c0.9-0.64,1.71-1.33,2.43-2.07c0.72-0.74,1.24-1.41,1.56-2.01L245.3,524.34z M220.88,532.98
			c-1,0.68-1.83,1.29-2.49,1.83s-1.21,1.21-1.65,2.01c-0.56,1-0.94,1.74-1.14,2.22c-0.2,0.48-0.3,0.86-0.3,1.14
			c0,0.52,0.34,0.78,1.02,0.78c0.64,0,1.14-0.34,1.5-1.02c0.44-0.76,0.9-1.7,1.38-2.82C219.68,536,220.24,534.62,220.88,532.98z"/>
		<path class="st35" d="M292.04,524.34c-0.48,1.04-1.26,2.1-2.34,3.18c-1.08,1.08-2.33,2.07-3.75,2.97c-1.42,0.9-2.92,1.69-4.5,2.37
			c-1.58,0.68-3.09,1.16-4.53,1.44c-0.88,2.2-1.85,4.04-2.91,5.52c-1.06,1.48-2.18,2.67-3.36,3.57c-1.18,0.9-2.41,1.54-3.69,1.92
			c-1.28,0.38-2.54,0.57-3.78,0.57c-2,0-3.63-0.45-4.89-1.35c-1.26-0.9-1.89-2.21-1.89-3.93c0-1.4,0.33-2.7,0.99-3.9
			s1.59-2.28,2.79-3.24s2.62-1.8,4.26-2.52c1.64-0.72,3.44-1.32,5.4-1.8c0.24-0.4,0.51-0.92,0.81-1.56c0.3-0.64,0.55-1.16,0.75-1.56
			c-0.68,0.4-1.58,0.76-2.7,1.08c-1.12,0.32-2.34,0.48-3.66,0.48c-2.44,0-4.32-0.47-5.64-1.41c-1.32-0.94-1.98-2.31-1.98-4.11
			c0-1.64,0.54-3.7,1.62-6.18l7.14-16.2c0.8-1.84,1.74-3.39,2.82-4.65s2.31-2.27,3.69-3.03c1.38-0.76,2.92-1.31,4.62-1.65
			s3.57-0.51,5.61-0.51c3.04,0,5.26,0.28,6.66,0.84c1.4,0.56,2.1,1.58,2.1,3.06c0,0.64-0.08,1.26-0.24,1.86l-10.2,3.72
			c0.2-0.28,0.4-0.61,0.6-0.99c0.2-0.38,0.38-0.76,0.54-1.14c0.16-0.38,0.29-0.74,0.39-1.08c0.1-0.34,0.15-0.61,0.15-0.81
			c0-0.6-0.64-0.9-1.92-0.9c-0.76,0-1.4,0.16-1.92,0.48c-0.52,0.32-1.02,1.02-1.5,2.1l-3.6,7.98l12.84,7.08
			c-1.12,2.88-2.34,5.73-3.66,8.55c-1.32,2.82-2.62,5.53-3.9,8.13c1.6-0.2,2.86-0.47,3.78-0.81c0.92-0.34,1.78-0.79,2.58-1.35
			c1.04-0.68,1.98-1.44,2.82-2.28s1.42-1.6,1.74-2.28L292.04,524.34z M267.56,534.18c-0.84,0.24-1.63,0.57-2.37,0.99
			s-1.37,0.89-1.89,1.41c-0.52,0.52-0.93,1.07-1.23,1.65c-0.3,0.58-0.45,1.17-0.45,1.77c0,0.36,0.14,0.61,0.42,0.75
			c0.28,0.14,0.58,0.21,0.9,0.21c0.36,0,0.67-0.08,0.93-0.24c0.26-0.16,0.49-0.38,0.69-0.66c0.64-0.84,1.19-1.7,1.65-2.58
			C266.67,536.6,267.12,535.5,267.56,534.18z M272.6,508.02l-5.94,12.72c-0.12,0.32-0.22,0.61-0.3,0.87
			c-0.08,0.26-0.12,0.51-0.12,0.75c0,0.84,0.54,1.26,1.62,1.26c1,0,1.93-0.15,2.79-0.45s1.69-0.73,2.49-1.29
			c0.8-1.64,1.62-3.4,2.46-5.28s1.62-3.78,2.34-5.7L272.6,508.02z"/>
		<path class="st35" d="M322.88,514.92c-2.2,2.32-5.64,3.72-10.32,4.2c-1.36,3.48-2.68,6.26-3.96,8.34
			c-1.28,2.08-2.61,3.66-3.99,4.74c-1.38,1.08-2.85,1.79-4.41,2.13c-1.56,0.34-3.26,0.51-5.1,0.51c-2.92,0-4.96-0.43-6.12-1.29
			c-1.16-0.86-1.74-2.03-1.74-3.51c0-1.44,0.5-3.22,1.5-5.34l2.76-6c0.84-1.8,1.71-3.32,2.61-4.56c0.9-1.24,1.84-2.23,2.82-2.97
			c0.98-0.74,2-1.27,3.06-1.59c1.06-0.32,2.17-0.48,3.33-0.48c0.68,0,1.2,0.01,1.56,0.03c0.36,0.02,0.66,0.07,0.9,0.15
			c1.44-1.32,3.22-1.98,5.34-1.98c1.36,0,2.36,0.28,3,0.84c0.64,0.56,0.96,1.36,0.96,2.4c0,1.12-0.36,2.46-1.08,4.02
			c0.4,0.08,0.75,0.15,1.05,0.21c0.3,0.06,0.59,0.09,0.87,0.09c0.8,0,1.65-0.15,2.55-0.45s1.85-0.83,2.85-1.59L322.88,514.92z
			 M304.64,516.72c-0.4-0.24-0.69-0.59-0.87-1.05c-0.18-0.46-0.27-0.95-0.27-1.47c0-0.36,0.02-0.64,0.06-0.84
			c-0.4,0.2-0.75,0.49-1.05,0.87s-0.63,1.01-0.99,1.89l-5.52,12.6c-0.2,0.44-0.3,0.84-0.3,1.2c0,0.76,0.34,1.14,1.02,1.14
			c0.44,0,0.87-0.15,1.29-0.45s0.77-0.73,1.05-1.29L304.64,516.72z M310.52,514.02c0.12-0.2,0.23-0.46,0.33-0.78
			c0.1-0.32,0.15-0.64,0.15-0.96c0-0.4-0.07-0.73-0.21-0.99c-0.14-0.26-0.39-0.39-0.75-0.39c-0.96,0-1.44,0.46-1.44,1.38
			C308.6,513.44,309.24,514.02,310.52,514.02z"/>
		<path class="st35" d="M348.56,514.92c-2.2,2.32-5.64,3.72-10.32,4.2c-1.36,3.48-2.68,6.26-3.96,8.34
			c-1.28,2.08-2.61,3.66-3.99,4.74c-1.38,1.08-2.85,1.79-4.41,2.13c-1.56,0.34-3.26,0.51-5.1,0.51c-2.92,0-4.96-0.43-6.12-1.29
			c-1.16-0.86-1.74-2.03-1.74-3.51c0-1.44,0.5-3.22,1.5-5.34l2.76-6c0.84-1.8,1.71-3.32,2.61-4.56c0.9-1.24,1.84-2.23,2.82-2.97
			c0.98-0.74,2-1.27,3.06-1.59c1.06-0.32,2.17-0.48,3.33-0.48c0.68,0,1.2,0.01,1.56,0.03c0.36,0.02,0.66,0.07,0.9,0.15
			c1.44-1.32,3.22-1.98,5.34-1.98c1.36,0,2.36,0.28,3,0.84c0.64,0.56,0.96,1.36,0.96,2.4c0,1.12-0.36,2.46-1.08,4.02
			c0.4,0.08,0.75,0.15,1.05,0.21c0.3,0.06,0.59,0.09,0.87,0.09c0.8,0,1.65-0.15,2.55-0.45s1.85-0.83,2.85-1.59L348.56,514.92z
			 M330.32,516.72c-0.4-0.24-0.69-0.59-0.87-1.05c-0.18-0.46-0.27-0.95-0.27-1.47c0-0.36,0.02-0.64,0.06-0.84
			c-0.4,0.2-0.75,0.49-1.05,0.87s-0.63,1.01-0.99,1.89l-5.52,12.6c-0.2,0.44-0.3,0.84-0.3,1.2c0,0.76,0.34,1.14,1.02,1.14
			c0.44,0,0.87-0.15,1.29-0.45s0.77-0.73,1.05-1.29L330.32,516.72z M336.2,514.02c0.12-0.2,0.23-0.46,0.33-0.78
			c0.1-0.32,0.15-0.64,0.15-0.96c0-0.4-0.07-0.73-0.21-0.99c-0.14-0.26-0.39-0.39-0.75-0.39c-0.96,0-1.44,0.46-1.44,1.38
			C334.28,513.44,334.92,514.02,336.2,514.02z"/>
		<path class="st35" d="M372.38,524.34c-0.48,1.12-1.38,2.29-2.7,3.51c-1.32,1.22-2.84,2.35-4.56,3.39
			c-1.72,1.04-3.53,1.9-5.43,2.58c-1.9,0.68-3.65,1.02-5.25,1.02c-1,0-1.71-0.19-2.13-0.57s-0.77-0.85-1.05-1.41
			c-0.44,0.36-0.89,0.66-1.35,0.9c-0.46,0.24-0.96,0.44-1.5,0.6c-0.54,0.16-1.15,0.28-1.83,0.36c-0.68,0.08-1.46,0.12-2.34,0.12
			c-1.4,0-2.61-0.39-3.63-1.17c-1.02-0.78-1.53-2.01-1.53-3.69c0-0.8,0.14-1.77,0.42-2.91c0.28-1.14,0.74-2.41,1.38-3.81l1.02-2.22
			c1.96-4.28,4.08-7.34,6.36-9.18c2.28-1.84,4.56-2.76,6.84-2.76c0.88,0,1.59,0.07,2.13,0.21c0.54,0.14,0.97,0.31,1.29,0.51
			l8.88-19.8h9.96l-16.5,36.24c-0.2,0.44-0.3,0.86-0.3,1.26c0,0.56,0.3,0.84,0.9,0.84c0.56,0,1.26-0.17,2.1-0.51
			c0.84-0.34,1.7-0.8,2.58-1.38c0.88-0.58,1.72-1.26,2.52-2.04c0.8-0.78,1.44-1.59,1.92-2.43L372.38,524.34z M356.84,513.66
			c-0.2-0.32-0.54-0.48-1.02-0.48c-0.48,0-0.91,0.13-1.29,0.39c-0.38,0.26-0.73,0.75-1.05,1.47l-5.88,13.38
			c-0.32,0.64-0.48,1.14-0.48,1.5c0,0.56,0.24,0.84,0.72,0.84c0.88,0,1.6-0.62,2.16-1.86L356.84,513.66z"/>
		<path class="st35" d="M407.42,513.24l-5.22,11.28c-0.92,1.92-1.84,3.54-2.76,4.86c-0.92,1.32-1.91,2.39-2.97,3.21
			c-1.06,0.82-2.21,1.4-3.45,1.74c-1.24,0.34-2.62,0.51-4.14,0.51c-2.6,0-4.42-0.42-5.46-1.26c-1.04-0.84-1.56-1.84-1.56-3
			c0-0.76,0.12-1.61,0.36-2.55c0.24-0.94,0.72-2.27,1.44-3.99c0.72-1.68,1.55-3.26,2.49-4.74c0.94-1.48,2.01-2.83,3.21-4.05
			c1.2-1.22,2.57-2.28,4.11-3.18c1.54-0.9,3.29-1.63,5.25-2.19l5.1-12.6c0.32-0.84,0.48-1.46,0.48-1.86c0-1-0.74-1.5-2.22-1.5h-2.46
			c-1.04,0-1.56-0.64-1.56-1.92c0-1.32,0.6-1.98,1.8-1.98h31.62c-1.12,1.2-2,2.17-2.64,2.91c-0.64,0.74-1.15,1.38-1.53,1.92
			c-0.38,0.54-0.68,1.04-0.9,1.5c-0.22,0.46-0.45,1.01-0.69,1.65h-4.32c0.32-0.8,0.66-1.56,1.02-2.28c0.36-0.72,0.8-1.32,1.32-1.8
			h-9.42c0,0.08,0.01,0.18,0.03,0.3c0.02,0.12,0.03,0.26,0.03,0.42c0,0.56-0.12,1.4-0.36,2.52c-0.24,1.12-0.76,2.64-1.56,4.56
			l-3.48,8.16h9.84l-1.5,3.36H407.42z M396.56,515.16c-1.48,0.52-2.85,1.6-4.11,3.24c-1.26,1.64-2.51,3.84-3.75,6.6
			c-0.56,1.28-0.94,2.23-1.14,2.85s-0.3,1.05-0.3,1.29c0,0.44,0.24,0.66,0.72,0.66c0.76,0,1.4-0.38,1.92-1.14
			c0.8-1.16,1.79-2.92,2.97-5.28C394.05,521.02,395.28,518.28,396.56,515.16z"/>
		<path class="st35" d="M448.76,514.92c-2.2,2.32-5.64,3.72-10.32,4.2c-1.36,3.48-2.68,6.26-3.96,8.34
			c-1.28,2.08-2.61,3.66-3.99,4.74c-1.38,1.08-2.85,1.79-4.41,2.13c-1.56,0.34-3.26,0.51-5.1,0.51c-2.92,0-4.96-0.43-6.12-1.29
			c-1.16-0.86-1.74-2.03-1.74-3.51c0-1.44,0.5-3.22,1.5-5.34l2.76-6c0.84-1.8,1.71-3.32,2.61-4.56c0.9-1.24,1.84-2.23,2.82-2.97
			c0.98-0.74,2-1.27,3.06-1.59c1.06-0.32,2.17-0.48,3.33-0.48c0.68,0,1.2,0.01,1.56,0.03c0.36,0.02,0.66,0.07,0.9,0.15
			c1.44-1.32,3.22-1.98,5.34-1.98c1.36,0,2.36,0.28,3,0.84c0.64,0.56,0.96,1.36,0.96,2.4c0,1.12-0.36,2.46-1.08,4.02
			c0.4,0.08,0.75,0.15,1.05,0.21c0.3,0.06,0.59,0.09,0.87,0.09c0.8,0,1.65-0.15,2.55-0.45s1.85-0.83,2.85-1.59L448.76,514.92z
			 M430.52,516.72c-0.4-0.24-0.69-0.59-0.87-1.05c-0.18-0.46-0.27-0.95-0.27-1.47c0-0.36,0.02-0.64,0.06-0.84
			c-0.4,0.2-0.75,0.49-1.05,0.87s-0.63,1.01-0.99,1.89l-5.52,12.6c-0.2,0.44-0.3,0.84-0.3,1.2c0,0.76,0.34,1.14,1.02,1.14
			c0.44,0,0.87-0.15,1.29-0.45s0.77-0.73,1.05-1.29L430.52,516.72z M436.4,514.02c0.12-0.2,0.23-0.46,0.33-0.78
			c0.1-0.32,0.15-0.64,0.15-0.96c0-0.4-0.07-0.73-0.21-0.99c-0.14-0.26-0.39-0.39-0.75-0.39c-0.96,0-1.44,0.46-1.44,1.38
			C434.48,513.44,435.12,514.02,436.4,514.02z"/>
		<path class="st35" d="M474.44,514.92c-2.2,2.32-5.64,3.72-10.32,4.2c-1.36,3.48-2.68,6.26-3.96,8.34
			c-1.28,2.08-2.61,3.66-3.99,4.74c-1.38,1.08-2.85,1.79-4.41,2.13c-1.56,0.34-3.26,0.51-5.1,0.51c-2.92,0-4.96-0.43-6.12-1.29
			c-1.16-0.86-1.74-2.03-1.74-3.51c0-1.44,0.5-3.22,1.5-5.34l2.76-6c0.84-1.8,1.71-3.32,2.61-4.56c0.9-1.24,1.84-2.23,2.82-2.97
			c0.98-0.74,2-1.27,3.06-1.59c1.06-0.32,2.17-0.48,3.33-0.48c0.68,0,1.2,0.01,1.56,0.03c0.36,0.02,0.66,0.07,0.9,0.15
			c1.44-1.32,3.22-1.98,5.34-1.98c1.36,0,2.36,0.28,3,0.84c0.64,0.56,0.96,1.36,0.96,2.4c0,1.12-0.36,2.46-1.08,4.02
			c0.4,0.08,0.75,0.15,1.05,0.21c0.3,0.06,0.59,0.09,0.87,0.09c0.8,0,1.65-0.15,2.55-0.45s1.85-0.83,2.85-1.59L474.44,514.92z
			 M456.2,516.72c-0.4-0.24-0.69-0.59-0.87-1.05c-0.18-0.46-0.27-0.95-0.27-1.47c0-0.36,0.02-0.64,0.06-0.84
			c-0.4,0.2-0.75,0.49-1.05,0.87s-0.63,1.01-0.99,1.89l-5.52,12.6c-0.2,0.44-0.3,0.84-0.3,1.2c0,0.76,0.34,1.14,1.02,1.14
			c0.44,0,0.87-0.15,1.29-0.45s0.77-0.73,1.05-1.29L456.2,516.72z M462.08,514.02c0.12-0.2,0.23-0.46,0.33-0.78
			c0.1-0.32,0.15-0.64,0.15-0.96c0-0.4-0.07-0.73-0.21-0.99c-0.14-0.26-0.39-0.39-0.75-0.39c-0.96,0-1.44,0.46-1.44,1.38
			C460.16,513.44,460.8,514.02,462.08,514.02z"/>
		<path class="st35" d="M498.26,524.34c-0.48,1.12-1.38,2.29-2.7,3.51c-1.32,1.22-2.84,2.35-4.56,3.39
			c-1.72,1.04-3.53,1.9-5.43,2.58c-1.9,0.68-3.65,1.02-5.25,1.02c-1,0-1.71-0.19-2.13-0.57s-0.77-0.85-1.05-1.41
			c-0.44,0.36-0.89,0.66-1.35,0.9c-0.46,0.24-0.96,0.44-1.5,0.6c-0.54,0.16-1.15,0.28-1.83,0.36c-0.68,0.08-1.46,0.12-2.34,0.12
			c-1.4,0-2.61-0.39-3.63-1.17c-1.02-0.78-1.53-2.01-1.53-3.69c0-0.8,0.14-1.77,0.42-2.91c0.28-1.14,0.74-2.41,1.38-3.81l1.02-2.22
			c1.96-4.28,4.08-7.34,6.36-9.18c2.28-1.84,4.56-2.76,6.84-2.76c0.88,0,1.59,0.07,2.13,0.21c0.54,0.14,0.97,0.31,1.29,0.51
			l8.88-19.8h9.96l-16.5,36.24c-0.2,0.44-0.3,0.86-0.3,1.26c0,0.56,0.3,0.84,0.9,0.84c0.56,0,1.26-0.17,2.1-0.51
			c0.84-0.34,1.7-0.8,2.58-1.38c0.88-0.58,1.72-1.26,2.52-2.04c0.8-0.78,1.44-1.59,1.92-2.43L498.26,524.34z M482.72,513.66
			c-0.2-0.32-0.54-0.48-1.02-0.48c-0.48,0-0.91,0.13-1.29,0.39c-0.38,0.26-0.73,0.75-1.05,1.47l-5.88,13.38
			c-0.32,0.64-0.48,1.14-0.48,1.5c0,0.56,0.24,0.84,0.72,0.84c0.88,0,1.6-0.62,2.16-1.86L482.72,513.66z"/>
	</g>
</g>
</svg>
