<?xml version="1.0" encoding="utf-8"?>
<!-- Generator: Adobe Illustrator 24.1.3, SVG Export Plug-In . SVG Version: 6.00 Build 0)  -->
<svg version="1.1" id="Layer_1" xmlns="http://www.w3.org/2000/svg" xmlns:xlink="http://www.w3.org/1999/xlink" x="0px" y="0px"
	 viewBox="0 0 1663.99 1328.82" style="enable-background:new 0 0 1663.99 1328.82;" xml:space="preserve">
<style type="text/css">
	.st0{fill:#F4CEDB;}
	.st1{fill:#E59FB9;}
	.st2{fill:#681948;}
	.st3{fill:#8C3762;}
	.st4{fill:#FB7600;}
	.st5{fill:#DB6B6B;}
	.st6{fill:#FFCB57;}
	.st7{fill:#C68A05;}
	.st8{fill:#F78686;}
	.st9{fill:#18287D;}
	.st10{fill:#7C1973;}
	.st11{fill:#E073A0;}
	.st12{fill:#F9A7A7;}
	.st13{fill:#2846A6;}
	.st14{fill:#0F1D5B;}
	.st15{fill:#FFFFFF;}
	.st16{fill:#E3E4FF;}
	.st17{fill:#FFDA88;}
	.st18{fill:#FFE9B8;}
	.st19{fill:#590F4B;}
	.st20{fill:#ECAB01;}
	.st21{fill:#A56289;}
	.st22{fill:#422634;}
	.st23{fill:#AA758B;}
	.st24{fill:#60374A;}
	.st25{fill:#7A4C5F;}
	.st26{fill:#7C1960;}
	.st27{fill:#D676A4;}
	.st28{fill:#0F0502;}
	.st29{fill:#FF9739;}
	.st30{fill:#FB8603;}
	.st31{fill:#ED1C24;}
	.st32{fill:#FB86BB;}
	.st33{fill:#E8E3DA;}
	.st34{fill:none;}
	.st35{fill:#333333;}
	.st36{clip-path:url(#SVGID_2_);}
	.st37{fill:#D7D9DD;}
	.st38{fill:#EDEEF0;}
	.st39{fill:#ECE8DC;}
	.st40{fill:#9FC159;}
	.st41{fill:#CEC4B9;}
	.st42{fill:#3BADDB;}
	.st43{fill:#FDFBEF;}
	.st44{fill:#BAD270;}
	.st45{fill:#6CC3EC;}
</style>
<g>
	<ellipse class="st0" cx="832" cy="594.55" rx="832" ry="594.55"/>
	<path class="st1" d="M1472.37,1291.65c0,20.52-291.37,37.16-650.8,37.16c-359.43,0-650.8-16.64-650.8-37.16
		c0-20.53,291.37-37.17,650.8-37.17C1180.99,1254.48,1472.37,1271.12,1472.37,1291.65z"/>
	<polygon class="st2" points="657.8,809.18 639.13,1275.13 648.47,1275.13 680.46,809.18 	"/>
	<polygon class="st3" points="984.23,800.36 1022.57,1265.11 1013.24,1265.51 961.58,801.32 	"/>
	<path class="st4" d="M512.29,449.87c-22.05-51.58-46.76-55.28-46.76-55.28l-27.8,197.8c23.65-1.01,57.82,12.22,79.79,17.18
		C527.57,548.6,522.74,474.32,512.29,449.87z"/>
	<path class="st5" d="M437.73,592.39l-19.45,138.38h61.33c0,0,15.14-63.45,26.29-131.1C483.92,594.71,461.38,591.39,437.73,592.39z"
		/>
	<g>
		<path class="st6" d="M1093.12,948.63c53.49,15.17,110.13,17.47,165.13,11.29c43.72-4.91,89.23-12.47,126.27-38.4
			c35.41-24.78,66.31-67.62,74.06-111.21c7.21-40.48-40.06-64.57-74.24-63.37c0,0-7.13-72.79-51.49-81.68
			c-44.37-8.9-185.38-17.8-224.99,0c-39.61,17.79-38.03,79.26-45.15,79.26c-25.18,0.01-46.09-9.84-62.08,17.26
			C966.45,819.74,993.4,920.35,1093.12,948.63z"/>
		<g>
			<polygon class="st3" points="1140.66,932.34 1115.87,932.34 1079.98,1275.09 1084.56,1275.09 			"/>
			<polygon class="st3" points="1299.34,932.34 1324.13,932.34 1360.02,1275.09 1355.44,1275.09 			"/>
			<path class="st7" d="M1429.41,857.73c-37.04,25.92-82.55,33.49-126.27,38.4c-55,6.17-111.63,3.87-165.12-11.3
				c-77.04-21.85-110.65-86.87-106.19-142.04c-11.85,0.25-22.29,3.88-31.19,18.99c-34.18,57.96-7.23,158.56,92.49,186.85
				c53.49,15.17,110.13,17.47,165.13,11.29c43.72-4.91,89.23-12.47,126.27-38.4c26.83-18.78,51.07-47.92,64.61-79.9
				C1442.81,847.57,1436.2,852.99,1429.41,857.73z"/>
		</g>
		<path class="st8" d="M1140.66,465.44c-44.46,44.46-52.29,202.72-83.81,206.84c-44.56,5.82-60.96-3.75-85.98,2.29
			c-7.66,1.85-57.83,29.84-56.77,35.12c1.06,5.28,25.88-7.92,25.88-7.92s-18.75,17.69-16.64,22.97c2.11,5.29,23.5-17.96,23.5-17.96
			s-3.17,10.83-4.49,18.23c-1.32,7.39-0.72,18.12,4.22,8.45c4.94-9.68,6.08-21.92,11.09-24.56c5.02-2.64,9.77-0.53,9.77-0.53
			s-1.98,0.39-6.07,4.49c-4.09,4.09-13.88,28.67-5.81,20.6c6.02-6.03,20.65-28.98,41.09-30.74c7.97,0.72,59.85,5.22,78.75,2.07
			c20.51-3.41,61.64-98.22,82.97-150.41c21.33-52.19,50.82-111.57,50.82-111.57S1185.12,420.97,1140.66,465.44z"/>
		<path class="st9" d="M1225.54,153.67c18,19.53,33.06,48.95,22,73.49l-3.11-1.41c8.88-23.26-6.82-49.6-24.33-66.59L1225.54,153.67z
			"/>
		<path class="st5" d="M1073.3,886.95l-1.4,22.34c11.97,20.81,31.03,39.87,37.98,78.32c17.83,98.67,45.68,262.43,45.68,262.43
			s17.16,22.04,6.99,24.9c-10.17,2.85-38.15,13.41-59.5,19.41c-21.35,6-25.69-2.76-25.69-2.76s48.52-22.24,47.89-44.01
			c-0.63-21.76-136.31-379.73-136.31-379.73l89.68-36.17L1073.3,886.95z"/>
		<path class="st10" d="M1089.44,1284.29l21.12,6.63l45.72-39.48c0,0,15.97,20.51,6.51,23.17c-9.46,2.66-42.32,16.49-62.18,22.08
			c-19.86,5.58-33.19-1.9-33.19-1.9S1077.49,1290.6,1089.44,1284.29z"/>
		<path class="st8" d="M898.79,1242.09l36.97-59.76l34.13-335.45c0,0,153.24-71.58,174.35-86.29
			c21.1-14.71,33.34-74.65,16.41-101.71l121.8-15.57l40.01,138.51c9.71,34.57-3.64,69.06-45.21,85.13
			c-41.57,16.06-240.48,14.9-240.48,14.9s15.95,2.1,14.31,39.8c-1.64,37.69-102.73,270.31-102.73,270.31l-11.08,77.72l-45.07,19.24
			L898.79,1242.09z"/>
		<path class="st11" d="M1322.45,781.83c-18.68-66.51-34-117.71-34-117.71l0.68-123.07l-30.82-48.14
			c-38.71-3.51-78.99,0.98-118.06,7.92c0,0,3.02,126.48,17.88,153.61c14.87,27.12,9.52,95.45-31.49,116.24
			c-41.01,20.8-119.38,46.86-119.38,46.86s63.85,78.6,69.96,100.34c0,0,161.92-40.04,191.97-48.49
			C1299.25,860.96,1341.14,848.34,1322.45,781.83z"/>
		<path class="st11" d="M1322.45,781.83c-18.68-66.51-34-117.71-34-117.71l0.68-123.07l-30.82-48.14c-4.58-0.41-9.18-0.71-13.8-0.91
			h-0.02c0,0,37.12,68.52,16.55,117.58c-20.58,49.06-52.91,55.66-40.23,68.34c12.68,12.68,53.46,5.58,53.46,29.17
			c0,23.59,14.7,122.63-14.7,138.52c-29.4,15.9-182.35,72.29-182.35,72.29s161.92-40.04,191.97-48.49
			C1299.25,860.96,1341.14,848.34,1322.45,781.83z"/>
		<polygon class="st10" points="937.26,1269.68 898.79,1242.09 892.2,1288.92 		"/>
		<path class="st12" d="M1137.37,213.24c0,0-27.84,15.19-30.73,38.35c-2.88,23.16,5.41,34.73,4.02,45.92
			c-1.39,11.18-0.08,32.02,13.36,64.11c13.44,32.09,59.13,13.92,85.31-9.07c29.48-25.89,38.3-15.28,38.22-57.06
			C1247.49,253.7,1185.41,175.83,1137.37,213.24z"/>
		<path class="st9" d="M1260.86,322.27c12.62-16.67,2.01-27.52,10.51-32.35c8.51-4.82,26.86-34.98,13.54-56.7
			c-13.31-21.73-24.54-9.75-36.2-21.94c-11.66-12.2-14.94-26.59-48.28-48.1c-33.34-21.51-53.06,15.22-53.06,15.22
			s-37.71,1.6-55.48,28.78c-4.72,7.21-8.14,13.47-10.63,18.77c-5.55,11.85-4.88,25.66,1.73,36.95c2.97,5.09,6.3,10.4,9.14,14.05
			c7.17,9.2,10.47,8.8,10.47,8.8c-13.67-12.91-6.24-27.08-6.24-27.08s3.12,21.31,8.59,25.02c3.33,2.25,12.06-4.05,12.06-4.05
			s-1.7-11.37,1.29-22.35c2.99-10.98,18.83-16.11,21.1-13.19c2.27,2.92,14.63,16.01,14.63,16.01l16.6,1.86
			c-6.85-16.66,19.25-34.1,19.25-34.1s4.15,2.54,7.17,9.2c3.03,6.66-2.23,32.57-3.3,41.15c-1.07,8.59,13.78,13.07,13.78,13.07
			s19.94-0.56,17.53,18.81c-2.41,19.37-17.04,14.71-17.69,19.9c-0.64,5.19-4.22,31.67-4.22,31.67S1248.24,338.95,1260.86,322.27z"/>
		<path class="st12" d="M1223.05,283.91c-3.88-1.06-33.18,15.74-28.86,28.24c4.33,12.5,15.25,14.92,26.55,9.31
			C1232.05,315.85,1239.53,288.4,1223.05,283.91z"/>
		<path class="st8" d="M1200.12,303.37c0,0,11.95-14.17,17.59-6.93c5.64,7.24,3.38,19.46-4.87,23.27
			C1204.59,323.51,1192.08,311.8,1200.12,303.37z"/>
		<path class="st13" d="M1141.06,326.97c0.52-3.55-4.39,0.63-12.64-10.74c3.23-5.05,5.03-11.28,5.38-16.85
			c-2.9,11.24-8.88,15.69-9.63,16.69c0.3,0.32,6.67,11.06,14.95,12.33l0.01,0C1140.06,328.55,1140.92,327.9,1141.06,326.97z"/>
		<path class="st13" d="M1160.28,304.64c-2.17,1.69-5.3,1.3-6.99-0.87c-1.69-2.17-1.3-5.3,0.87-7c2.17-1.69,5.3-1.3,6.99,0.87
			C1162.84,299.82,1162.45,302.95,1160.28,304.64z"/>
		<path class="st13" d="M1118.98,303.26c-2.17,1.69-5.3,1.3-6.99-0.87c-1.69-2.17-1.3-5.3,0.87-6.99c2.17-1.69,5.3-1.3,6.99,0.87
			C1121.54,298.44,1121.15,301.57,1118.98,303.26z"/>
		<path class="st14" d="M1142.38,292.47c5.67-0.53,11.37,0.04,16.92,1.74c2.84,0.96,5.28,2.13,7.75,3.38
			c2.47,1.27,4.91,2.59,7.28,4.31c-2.93-0.03-5.71-0.7-8.41-1.53c-2.72-0.78-5.28-2.15-7.7-3.04
			C1153.18,295.46,1147.8,294.14,1142.38,292.47z"/>
		<path class="st14" d="M1104.93,291.65c4.18-0.14,8.43,0.56,12.63,2.12c2.16,0.86,4.02,1.87,5.91,2.94
			c1.89,1.09,3.76,2.22,5.6,3.64c-2.18-0.16-4.27-0.81-6.31-1.56c-2.05-0.72-4.02-1.89-5.86-2.69
			C1113.08,294.45,1109.02,293.18,1104.93,291.65z"/>
		<path class="st14" d="M1142.49,273.68l2.33,6.12c0,0,15.05-0.91,21.6,5.18C1166.41,284.97,1155.12,269.97,1142.49,273.68z"/>
		<path class="st15" d="M1128.77,343.14c0,0,17.14-1.77,31.51-7.23c0,0-13.12,21.07-21.21,20.07
			C1130.99,354.97,1128.77,343.14,1128.77,343.14z"/>
		<path class="st16" d="M1072.19,600.25c0-26.46,23.89-131.2,23.89-131.2h-53.29l23.52,126.87v57.62l-25.02,8.27h53.5l-22.6-8.27
			C1072.19,653.54,1072.19,626.71,1072.19,600.25z"/>
		<path class="st16" d="M1072.19,600.25c0-26.46,23.89-131.2,23.89-131.2h-53.29l23.52,126.87v57.62l-25.02,8.27h53.5l-22.6-8.27
			C1072.19,653.54,1072.19,626.71,1072.19,600.25z"/>
		<path class="st17" d="M1053.24,509.42l16,86.5v0.23h0.15c1.1-18.18,8.58-56.69,14.88-86.73H1053.24z"/>
		<path class="st18" d="M1063.33,516.16c0,0.88-0.71,1.59-1.59,1.59c-0.88,0-1.59-0.71-1.59-1.59c0-0.88,0.71-1.59,1.59-1.59
			C1062.62,514.57,1063.33,515.28,1063.33,516.16z"/>
		<path class="st18" d="M1065.29,530c0,0.54-0.44,0.98-0.98,0.98c-0.54,0-0.98-0.44-0.98-0.98c0-0.54,0.44-0.98,0.98-0.98
			C1064.85,529.02,1065.29,529.46,1065.29,530z"/>
		<path class="st18" d="M1064.56,541.64c0,0.81-0.66,1.47-1.47,1.47c-0.81,0-1.47-0.66-1.47-1.47c0-0.81,0.66-1.47,1.47-1.47
			C1063.9,540.17,1064.56,540.83,1064.56,541.64z"/>
		<path class="st18" d="M1070.33,539.98c0,0.43-0.35,0.78-0.79,0.78c-0.43,0-0.79-0.35-0.79-0.78c0-0.44,0.35-0.79,0.79-0.79
			C1069.98,539.19,1070.33,539.54,1070.33,539.98z"/>
		<path class="st12" d="M1299.1,471.74c-13.21-40.84-76.18-31.61-76.18-31.61c-38.57,1.28-82.67,60.71-82.67,60.71
			c34.5-6.13,69.94-10.34,104.42-8.83l17.98,35.99c0,0,47.53,101.85,26.41,122.98c-13.08,13.08-75-4.67-113.81-22.1
			c-20.59-9.24-36.38-12-47.85-12.3c-1.31-0.78-2.22-1.41-2.67-1.85c-6.25-6.25-31.12-27.2-32.59-27.2
			c-19.99,0-31.11-2.45-33.07,1.47c-1.96,3.92-0.25,12.74-0.25,12.74c-4.16,6.13-0.49,14.09-0.49,14.09
			c-2.33,8.7-0.64,17.46,3.92,17.89c8.02,0.76,51.94-1.35,51.94-1.35c3.1,3.1,31.31,16.27,39.56,21.69
			c28.56,18.76,144.54,73.58,170.68,37.93C1350.59,656.32,1315.06,521.08,1299.1,471.74z"/>
		<path class="st12" d="M1176.8,361.69c0,1.84,15.13,69.2,0,98.6c-15.12,29.4,43.31,11.03,57.64-6.62
			c14.33-17.64-25.26-125.83-25.26-125.83L1176.8,361.69z"/>
	</g>
	<path class="st11" d="M355.69,869.55c-5.52,0-83.65-53.54-78.07-110.42c5.58-56.88-44.61-87-76.96-80.3
		c-32.34,6.69-122.68,33.46-122.68,33.46l89.22,163.95l59.88,69.88l87.34,1.5l181.54,14.5
		C495.97,962.12,472.62,869.55,355.69,869.55z"/>
	<path class="st19" d="M423.86,795.39l172.53,25.07c12.98,1.89,23.08,12.26,24.61,25.28l44.75,378.14c0,0-0.08,37.69,22.05,45.36
		c22.13,7.67,44.03,19.7,44.03,19.7l-104.37-4.8c0,0-7.19-31.24,0.11-52.28c7.29-21.04-46-292.93-46-292.93L423.86,795.39z"/>
	<path class="st10" d="M212.93,762.51L229.91,895l34.16,61.25l255.18-38.04l74.62,310.18l12.4,88.69c0,0,33.68,0,62.79,0
		c28.09,0,49.06,0,49.06,0s-67.85-23-75.15-43.59c-5.94-16.73-26.47-301.74-33.95-407.89c-1.63-23.15-18.9-42.14-41.78-46
		l-178.26-30.1l-52.43-41.52L212.93,762.51z"/>
	<path class="st20" d="M495.31,475.59c-0.17-28.13,0.35-56.34-22.82-79.51l-55.39-11.84c0,0-18.86-3.88-72.56,29.75
		c-76.77,48.07-169.67,420.64-169.67,420.64l214.11-45.12c0,0,12.83-140.18,51.36-178.71C470.6,580.54,495.72,544.32,495.31,475.59z
		"/>
	<polygon class="st3" points="238.95,927.9 212.77,927.9 174.88,1309.18 179.72,1309.18 	"/>
	<polygon class="st3" points="406.5,927.9 432.68,927.9 470.57,1309.18 465.73,1309.18 	"/>
	<path class="st21" d="M77.98,712.29c0,20.07,83.52,206.14,95.15,229.4c29.21,58.41,151.33,15.97,183.68,22.66
		c32.34,6.69,98.15,32.34,128.26,16.73c30.11-15.62-4.46-59.11-75.84-59.11c-71.38,0-125.61,32.55-168-9.83
		s-36.11-126.24-60.65-176.43C156.05,685.52,77.98,712.29,77.98,712.29z"/>
	<g>
		<polygon class="st22" points="580.41,800.98 559.82,1314.77 570.12,1314.77 605.4,800.98 		"/>
		<polygon class="st22" points="1096.5,801.88 1138.78,1314.34 1128.5,1314.77 1071.53,802.93 		"/>
		<path class="st23" d="M1102.21,746.81c-73.93-8.02-173.43-12.93-282.87-12.93c-109.44,0-208.94,4.91-282.87,12.93l-130.36,6.49
			v28.27c0,26.33,185.01,47.68,413.22,47.68c228.21,0,413.22-21.35,413.22-47.68V753.3L1102.21,746.81z"/>
		<path class="st24" d="M1232.57,753.3c0,26.34-185.01,47.68-413.22,47.68c-228.22,0-413.22-21.34-413.22-47.68
			c0-26.33,185.01-47.68,413.22-47.68C1047.56,705.62,1232.57,726.97,1232.57,753.3z"/>
		<path class="st25" d="M618.32,753.3c0-22.1,130.32-40.69,307.12-46.09c-33.86-1.03-69.42-1.58-106.09-1.58
			c-228.22,0-413.22,21.34-413.22,47.68c0,26.34,185.01,47.68,413.22,47.68c36.68,0,72.24-0.55,106.09-1.59
			C748.63,793.99,618.32,775.41,618.32,753.3z"/>
		<g>
			<path class="st26" d="M883.49,501.24l-86.38,0.55l0,0c-0.01-7.15,3.26-12.96,7.32-12.98l71.69-0.46
				C880.18,488.33,883.48,494.1,883.49,501.24L883.49,501.24z"/>
			<path class="st27" d="M803.73,493.45l71.69-0.46c3.12-0.02,5.8,3.41,6.86,8.25l1.21,0c-0.01-7.15-3.32-12.92-7.37-12.89
				l-71.69,0.46c-3.87,0.02-7.02,5.32-7.29,12.01C798.32,496.48,800.82,493.47,803.73,493.45z"/>
			<path class="st26" d="M841.81,541.61l-8.13,0.05l-0.07-0.72c-0.67-7.18-3.06-13.5-6.56-17.35l-19.83-21.85l62.2-0.39
				l-20.66,21.52C844.92,526.86,842.35,533.79,841.81,541.61L841.81,541.61z"/>
			<path class="st26" d="M841.81,541.61l-8.13,0.05l-0.07-0.72c-0.67-7.18-3.06-13.5-6.56-17.35l-19.83-21.85l62.2-0.39
				l-20.66,21.52C844.92,526.86,842.35,533.79,841.81,541.61L841.81,541.61z"/>
			<path class="st26" d="M847.21,600.99c0.01,3.42-4.36,6.22-9.77,6.25c-5.4,0.04-9.79-2.71-9.79-6.13
				c-0.01-3.42,4.37-6.22,9.77-6.26C842.82,594.82,847.2,597.56,847.21,600.99z"/>
			<path class="st26" d="M842.81,601.02c0.01,6.09-2.39,11.05-5.36,11.07c-2.97,0.02-5.39-4.91-5.41-11
				c-0.01-6.09,2.39-11.05,5.36-11.07C840.38,590,842.8,594.92,842.81,601.02z"/>
			<polygon class="st26" points="840.66,676.24 835.39,676.27 835.11,541.64 840.38,541.61 			"/>
			<path class="st26" d="M844.8,686.2l-12.58,0.08l-0.01-5.95c-0.01-2.94,1.34-5.33,3.01-5.34l6.55-0.04
				c1.67-0.01,3.02,2.36,3.03,5.3L844.8,686.2z"/>
			<path class="st26" d="M851.08,695.53l-25.39,0.16l-0.01-5.24c0-2.73,1.25-4.95,2.8-4.96l19.77-0.12
				c1.55-0.01,2.81,2.19,2.82,4.92L851.08,695.53z"/>
			<path class="st26" d="M859.84,704.85l-42.2,0.27l-0.01-5.03c0-3.05,1.39-5.53,3.13-5.54l35.92-0.23
				c1.73-0.01,3.15,2.45,3.15,5.51L859.84,704.85z"/>
			<path class="st26" d="M876.68,715.56v-0.45c-0.01-6.11-2.83-11.04-6.3-11.02l-61.95,0.39c-3.46,0.03-6.26,4.98-6.26,11.07H876.68
				z"/>
			<path class="st27" d="M872.25,708.66c0,1.17-5.88,2.11-13.15,2.11c-7.26,0-13.15-0.94-13.15-2.11c0-1.16,5.89-2.1,13.15-2.1
				C866.37,706.56,872.25,707.5,872.25,708.66z"/>
			<path class="st27" d="M857.91,698.21c0,0.76-2.84,1.38-6.35,1.38c-3.5,0-6.35-0.62-6.35-1.38c0-0.76,2.84-1.38,6.35-1.38
				C855.07,696.83,857.91,697.45,857.91,698.21z"/>
			<path class="st27" d="M849.34,689.14c0,1.36-2.86,2.47-6.39,2.47c-3.53,0-6.39-1.1-6.39-2.47c0-1.36,2.86-2.47,6.39-2.47
				C846.48,686.67,849.34,687.78,849.34,689.14z"/>
			<path class="st27" d="M843.98,680.43c0,1.76-1.33,3.19-2.97,3.19c-1.64,0-2.96-1.43-2.96-3.19c0-1.77,1.33-3.19,2.96-3.19
				C842.65,677.24,843.98,678.67,843.98,680.43z"/>
			<path class="st27" d="M843.98,601.1c0,1.73-1.96,3.12-4.38,3.12c-2.42,0-4.38-1.4-4.38-3.12c0-1.72,1.96-3.12,4.38-3.12
				C842.02,597.98,843.98,599.38,843.98,601.1z"/>
			<g>
				<path class="st28" d="M837.41,381.34c-2.39-7.77,3.45-13.04,3.7-13.26l0.91,0.9c-0.23,0.2-5.5,4.98-3.34,12.02L837.41,381.34z"
					/>
			</g>
			<path class="st29" d="M849.7,488.45l-23.2,0.3l-0.09-94.64c0.06,0,5-0.05,4.69-0.04c3.08-0.06,2.97-10.91,6.25-18.21
				c0.49-1.1,1.1-1.14,1.61-0.19c0.92,1.7,2.42,5.31,3.66,12.22c1.63,9.04,4.36,4.97,7,5.92l0.07,69.56L849.7,488.45z"/>
			<path class="st30" d="M849.7,488.45l-23.2,0.3l-0.09-94.64h0.99c1.04,22.18,3.09,50.05,6.97,58.71
				c3.81,8.5,10.33,10.45,15.31,10.55L849.7,488.45z"/>
			<path class="st31" d="M839.43,351.24c-0.24,0.31-4.43,7.9-3.61,11.58c0.83,3.67,2.22,7.12,5.29,7.12c3.07,0,4.08-4.82,3.44-8.32
				c-0.64-3.49,0.09-8.08,0.64-8.08c0.55,0-3.68,1.1-3.68,4.96c0,0,1.75-11.21,5.61-13.69
				C847.12,344.81,841.43,348.67,839.43,351.24z"/>
		</g>
	</g>
	<path class="st32" d="M844.06,710.02c0.05,0.21,0.1,0.41,0.15,0.6l0,0C844.15,710.38,844.11,710.22,844.06,710.02z"/>
	<path class="st32" d="M843.33,707.07c-0.01-0.03-0.02-0.07-0.02-0.09C843.31,707,843.32,707.05,843.33,707.07z"/>
	<path class="st32" d="M843.6,708.16c-0.02-0.08-0.04-0.13-0.05-0.2C843.56,708.02,843.58,708.09,843.6,708.16z"/>
	<path class="st12" d="M493.96,331.99c-2.35,4.14-15.82,41.11-17.42,68.65c-0.99,17.01-15.06,30.24-32.07,31.03
		c-15.81,0.74-39.97-11.9-45.91-19.92c-13.07-17.66,26.49-118.79,26.49-118.79L493.96,331.99z"/>
	<path class="st8" d="M425.06,292.97c0,0-3.65,12.99-7.95,30.82c20.89,13.3,49.48,29.09,68.7,30.96
		c3.58-11.84,7.07-20.83,8.16-22.75L425.06,292.97z"/>
	<path class="st12" d="M510.44,336.84c13.74-24.26,5.25-57.91,5.25-57.91l15.09,2.78c0,0-11.48-72.52-33.4-88.13
		c-21.92-15.62-62.87-15.74-84.61,32.83c-21.74,48.57-28.28,56.73-12.95,68.13C415.15,305.94,496.71,361.1,510.44,336.84z"/>
	<path class="st9" d="M440.84,277.55c0,0,8.08-21.06,8.71-38.01c0.63-16.95-8.06-27.64,9.4-36.97c17.46-9.34,30.28-4.45,40.54-7.29
		c10.26-2.84,29.79-38.12,13.54-60.14c-16.24-22.02-46.46-36.57-59.92-12.79c-13.46,23.78-15.39,27.17-15.39,27.17
		s-2.47-25.05-29.02-6.47c-26.55,18.58-25.4,30.13-28.42,35.47c-3.03,5.34-35.86,12.38-36.87,36.8c-1.01,24.42,5.09,19.3-8.43,43.17
		c-13.52,23.87,68,70.04,68.41,86.3c0.41,16.25-14.61,31.46-13.51,29.51c1.1-1.94,26.88-16.01,31.8-40.31
		c4.92-24.3-8.92-61.77,1.34-64.61C433.29,266.55,440.84,277.55,440.84,277.55z"/>
	<path class="st12" d="M437.7,302.83c0,0-19.93-1.17-32.21-8.13c-12.28-6.95-10.86-36.27,1.3-39.64
		C418.95,251.7,455.29,271.78,437.7,302.83z"/>
	<path class="st13" d="M479.6,239.08c0,0,10.06-13.95,17.48-11.92c7.41,2.04,12.19,0.6,12.19,0.6l-1.44,7.47
		c0,0-7.52-1.8-14.49,0.13C486.36,237.3,479.6,239.08,479.6,239.08z"/>
	<path class="st13" d="M500.76,247.78c2.65,1.5,3.59,4.88,2.08,7.54c-1.5,2.66-4.88,3.59-7.54,2.09c-2.66-1.5-3.59-4.88-2.08-7.54
		C494.72,247.21,498.1,246.27,500.76,247.78z"/>
	<g>
		<path class="st9" d="M500.82,299.54c-1.95-1.07-3.9-2.25-5.5-3.83c1.39,1.77,3.21,3.2,5.06,4.54c1.87,1.32,3.87,2.47,5.96,3.47
			c3.73,1.81,7.74,3.04,11.83,3.83c0.06-1.09,0.09-2.16,0.11-3.22c-3.8-0.26-7.64-0.93-11.33-2.19
			C504.84,301.46,502.79,300.6,500.82,299.54z"/>
	</g>
	<path class="st8" d="M421.14,266.29c-9.93,0.14-15.12,16.91-5.93,22.12c9.2,5.21,14.23-3.8,14.46-7.91
		C429.75,279.32,431.08,266.15,421.14,266.29z"/>
	<path class="st16" d="M675.48,449.87c0,0,22.66,105.01,22.36,131.47c-0.31,26.46-0.62,53.28-0.62,53.28l5.88,0.07l0.67-57.61
		l25-126.59L675.48,449.87z"/>
	<path class="st16" d="M728.77,450.5l-53.28-0.62c0,0,19.8,91.75,22.13,125.33h6.53L728.77,450.5z"/>
	<path class="st17" d="M686.36,488.1c5.54,27.93,12.2,64.01,13.97,84.16h1.39l16.62-84.16H686.36z"/>
	<path class="st18" d="M702.35,492c0,0.86-0.7,1.56-1.56,1.56c-0.86,0-1.56-0.7-1.56-1.56c0-0.86,0.7-1.56,1.56-1.56
		C701.65,490.44,702.35,491.14,702.35,492z"/>
	<path class="st18" d="M697.11,501.79c0,0.66-0.53,1.2-1.2,1.2c-0.66,0-1.19-0.54-1.19-1.2c0-0.66,0.54-1.19,1.19-1.19
		C696.57,500.6,697.11,501.14,697.11,501.79z"/>
	<path class="st18" d="M704.85,512.44c0,0.75-0.61,1.37-1.36,1.37c-0.75,0-1.36-0.61-1.36-1.37c0-0.75,0.61-1.36,1.36-1.36
		C704.24,511.08,704.85,511.69,704.85,512.44z"/>
	<path class="st18" d="M701.34,523.07c0,0.43-0.35,0.78-0.78,0.78c-0.43,0-0.78-0.35-0.78-0.78c0-0.43,0.35-0.78,0.78-0.78
		C700.99,522.28,701.34,522.63,701.34,523.07z"/>
	<path class="st18" d="M702.07,535.61c0,0.76-0.34,1.38-0.76,1.38c-0.42,0-0.76-0.61-0.76-1.38c0-0.76,0.34-1.38,0.76-1.38
		C701.73,534.23,702.07,534.84,702.07,535.61z"/>
	<polygon class="st16" points="674.52,642.63 728.02,643.26 703.1,634.7 697.22,634.63 	"/>
	<path class="st12" d="M409.3,472.68c0,0-26.89,23.51-17.64,82.61c11.87,75.9,106.49,160.23,132.17,169.29
		c25.68,9.05,128.66-78.5,145.79-103.73c0,0,28-8.13,42.94-9.26c5.9-0.44,10.78-5.26,10.4-11.17c-0.14-2.1-0.6-4.27-1.58-6.3
		c0,0,2.11-8.51-3.13-13.75c0,0,0.03-8.99-2.64-12.47c-2.66-3.48-13.12,1.01-32.76,4.77c-1.44,0.28-21.93,25.52-26.89,32.83
		c-4.96,7.31-83.4,50.9-108.61,49.48c-25.21-1.41-78.12-77.62-78.33-98.28C469,556.7,413.41,471.89,409.3,472.68z"/>
	<path class="st6" d="M398.37,393.4c-53.5-32.23-88.07,60.14-88.07,60.14s43.78,85.96,76.27,151.33
		c26.44-16.4,61.89-41.87,90.61-53.41C450.69,495.8,420.01,406.44,398.37,393.4z"/>
	<path class="st8" d="M412.57,725.23c0,0,16.66-20.07,29.4-20.07c12.74,0,12.3,1.92,20.11,1.92c7.82,0,15.12,0.06,18.3,3.24
		c3.18,3.19,0,27.83,0,33.72c0,5.88-14.84,3.95-18.3,3.95c-3.45,0-13.01,0-20.36,0c-7.35,0-12.49,1.76-16.91,0
		c-4.41-1.77-14.7-0.27-14.7-0.27L412.57,725.23z"/>
	<path class="st8" d="M970.86,674.56c-7.66,1.85-57.83,29.84-56.77,35.12c1.06,5.28,25.88-7.92,25.88-7.92s-18.75,17.69-16.64,22.97
		c2.11,5.29,23.5-17.96,23.5-17.96s-3.17,10.83-4.49,18.23c-1.32,7.39-0.71,18.12,4.23,8.45c4.94-9.68,6.07-21.92,11.09-24.56
		c5.02-2.64,9.77-0.53,9.77-0.53s-1.98,0.39-6.07,4.49c-4.09,4.09-13.88,28.67-5.81,20.6c6.02-6.03,20.65-28.98,41.09-30.74
		c2.19,0.2,7.75,0.68,14.97,1.21c-2.76-10.37-7.42-20.73-12.5-31.09C989.51,672.24,980.87,672.15,970.86,674.56z"/>
</g>
<path class="st33" d="M128.33,1568.07c0,0-4.65-8.8-21.76,0c0,0-25.79,8.66-38.48,92.07c0,0-5.84,50.98-1.82,137.01
	c0,0,0,5.64,4.23,7.45c0,0,10.88,2.42,13.3,18.94c0,0-0.11,0.27-0.27,0.74c-1.96,2.45-3.16,5.67-3.16,9.21
	c0,2.65,0.68,5.12,1.84,7.23c0.44,1.25,1.08,2.39,1.99,3.37l-3.25,249.75c-0.01,0.06-0.03,0.11-0.03,0.17
	c0,3.08,9.25,5.57,20.64,5.57c11.29,0,20.43-2.44,20.63-5.47l0,0c0-0.03,0.02-0.06,0.02-0.1c0-0.04-0.02-0.09-0.02-0.13l-8.33-249.4
	c2.96-2.54,4.87-6.51,4.87-10.99c0-3.59-1.24-6.86-3.25-9.33c-0.18-0.39-0.37-0.8-0.57-1.2c0,0,0.53-6.45,7.96-17.05l-0.95-59
	c0.85-20.19-1.14-32.41,0.85-75.06c1.8-38.52,9.42-78.29,9.42-78.29S134.1,1576.01,128.33,1568.07z"/>
<path class="st33" d="M646.33,1625.93c-0.17-3.05-0.4-5.54-1.13-8.52c-0.29-1.17-1.8-3.48-2.74-4.33c-0.3-0.27-0.59-0.4-0.85-0.43
	c-1.54-0.14-2.4,3.45-2.6,4.46c-0.49,2.45-1.01,5.82-1.04,8.32c-0.03,2.51-0.59,14.75-0.8,18.16l0.1,71l-0.02,8.98
	c-0.04,2.21-1.94,3.99-4.28,3.99c-2.32,0-4.19-1.73-4.32-3.9c-0.25-5.14-0.27-10.31-0.43-15.46l-1.61-68.65
	c-0.13-2.48-0.27-4.95-0.4-7.42c-0.12-2.16-0.23-4.31-0.35-6.48c-0.17-3.04-0.39-6.08-1.13-9.06c-0.28-1.17-0.65-2.7-1.59-3.54
	c-0.3-0.27-0.58-0.4-0.85-0.43c-1.54-0.14-2.39,3.45-2.6,4.46c-0.49,2.45-1.13,9.2-1.16,11.7l-0.64,11.66l-1.03,74.88
	c0,0,0.18,3.5-0.04,8.14c-0.12,2.14-1.98,3.85-4.27,3.85c-2.33,0-4.21-1.75-4.34-3.94c0.1-3.88,0.02-27.83-0.04-30.97l-0.17-18.18
	c-0.1-1.79-0.02-46.78-0.11-48.58c-0.17-3.04-0.39-6.08-1.13-9.06c-0.28-1.17-0.64-2.7-1.59-3.54c-0.3-0.27-0.58-0.4-0.84-0.43
	c-1.54-0.14-2.4,3.45-2.6,4.46c-0.49,2.45-0.74,4.92-0.78,7.42c-0.03,2.64-0.4,10.19-0.57,12.83l-1.55,74.92
	c-0.02,1.96-0.04,3.93-0.06,5.89c-0.03,1.8-0.05,3.61-0.07,5.41c-0.17,2.1-2,3.76-4.26,3.76c-2.33,0-4.21-1.76-4.29-3.94
	c-0.19-3.03-0.02-4.84-0.09-8.04l-1.12-73.83l-1.03-19.04h-0.06c-0.24-5.57-1.63-9.85-3.33-9.85c-1.86,0-3.38,5.18-3.38,11.57v0.24
	l-1.52,25.34l-4.86,103.96c0,0-1.87,9.05,8.11,17.48l12.17,12.8c0,0,8.12,6.24,8.43,19.04c0.31,12.79-4.37,141.7-4.37,141.7
	s-5.57,149.49-5.58,149.52c0,2.93,8.8,5.3,19.66,5.3c10.85,0,19.65-2.38,19.65-5.3c0-0.08-0.04-0.17-0.05-0.25l-2.77-150.53
	l-6.87-139.51c0,0,0.62-12.78,8.74-20.59l13.73-13.11c0,0,5.93-5.93,4.99-15.29c0,0-0.2-40.95-1.23-74.64l-2.08-37.88l-0.09-1.68
	L646.33,1625.93z"/>
<g>
	<g>
		<path class="st33" d="M353.96,1691.46c-113.9,0-206.24,92.34-206.24,206.24c0,113.9,92.34,206.24,206.24,206.24
			c113.9,0,206.24-92.34,206.24-206.24C560.2,1783.8,467.86,1691.46,353.96,1691.46z M483.14,1996.97
			c-29.83,38.72-76.63,63.72-129.18,63.72c-53.54,0-101.13-25.95-130.86-65.93l-39.87,14.86v-198.91l45.17-16.83
			c29.92-36.12,75.1-59.17,125.56-59.17c52.31,0,98.94,24.78,128.78,63.21l34.21,12.8v198.91L483.14,1996.97z"/>
		<path class="st33" d="M248.89,1794.87c0,0.02,0.01,0.03,0.01,0.05c1.87-0.64,3.74-1.28,5.61-1.93c0-0.01,0-0.01,0-0.02
			c2.84-0.97,4.95-1.69,6.99-2.39c3.26-1.14,6.51-2.29,9.76-3.46c2.1,0.72,4.2,1.45,6.3,2.18c0,0,0-0.01,0-0.01
			c7.22,2.48,10.73,3.7,17.66,6.09c-0.01,0.01-0.01,0.01-0.02,0.01c6.9,2.39,13.8,4.77,20.69,7.16c0,0,0,0,0,0
			c0.78,0.27,1.47,0.51,2.14,0.74c10.75,3.73,21.49,7.46,32.24,11.18c21.49-7.45,42.96-14.95,64.45-22.38c0,0,0,0,0-0.01
			c5.85-2.02,8.74-3.02,14.42-4.97c11.02,3.81,22.05,7.59,33.08,11.39c0,0,0,0,0,0c5.9,2.03,8.84,3.03,14.72,5.06
			c-0.01,0-0.02,0-0.03,0.01c4.38,1.51,8.77,3.03,13.15,4.55c-2.31-3.5-4.75-6.9-7.31-10.21l-53.46-20l-79.01,29.72l-79.01-29.72
			l-42.85,15.97c-2.83,3.42-5.52,6.96-8.07,10.6C229.84,1801.24,239.37,1798.07,248.89,1794.87z"/>
		<path class="st33" d="M190.97,1897.7c0,6.92,0.44,13.74,1.28,20.43c0-13.62,0-27.24,0-40.86
			C191.41,1883.96,190.97,1890.78,190.97,1897.7z"/>
		<path class="st33" d="M429.28,1970.2c-26.36,9.06-52.7,18.18-79.01,27.35c-6.6-2.27-13.21-4.53-19.82-6.79
			c-12.36-4.23-24.7-8.48-37.03-12.78c-0.83-0.29-1.67-0.58-2.5-0.87c-6.33-2.22-12.66-4.45-18.97-6.7c0,0,0,0-0.01-0.01
			c-0.19-0.07-0.37-0.13-0.56-0.2c-17.61,6.02-35.22,12.06-52.8,18.16c1.46,2.17,2.97,4.3,4.53,6.4l48.15-17.94l79.01,29.72
			l79.01-29.72l53.86,20.15c1.63-2.11,3.2-4.26,4.72-6.45C468.32,1983.8,448.79,1977.02,429.28,1970.2z"/>
		<path class="st33" d="M516.96,1897.7c0-18.34-3.05-35.98-8.66-52.45c0,34.97,0,69.93,0,104.9
			C513.91,1933.68,516.96,1916.04,516.96,1897.7z"/>
		<path class="st33" d="M507.9,1832.52c-1.61-0.21-3.23-0.42-4.84-0.63c1.41,3.18,2.73,6.41,3.94,9.69c0.3,0.05,0.6,0.09,0.9,0.13
			c0,0.8,0,1.61,0,2.41c0.13,0.38,0.27,0.75,0.4,1.13c0-10.26,0-20.52,0-30.78c-0.31-0.11-0.63-0.22-0.94-0.33
			c0.18,0.06,0.35,0.12,0.54,0.19C507.9,1821.9,507.9,1825.52,507.9,1832.52z"/>
		<path class="st33" d="M498.1,1810.92c-2.68-0.93-5.35-1.87-8.03-2.8c0.43,0.65,0.86,1.3,1.29,1.96
			C493.35,1810.33,495.49,1810.6,498.1,1810.92z"/>
		<path class="st33" d="M507.89,1981.59c-3.02-3.09-6.03-6.17-9.05-9.26c-1.13,2.19-2.31,4.35-3.53,6.48
			c4.2,4.51,8.39,9.02,12.58,13.54c0,2,0,3.02,0,5.07c-4.49-1.53-8.97-3.09-13.45-4.63c4.62,1.59,9.24,3.19,13.86,4.77
			c0-15.8,0-31.6,0-47.4c-0.13,0.38-0.27,0.76-0.41,1.15C507.89,1961.39,507.89,1971.49,507.89,1981.59z"/>
		<path class="st33" d="M429.25,1909.48c0.02,16.94,0.02,33.45,0.03,50.39c3.34-1.54,4.97-2.31,8.18-3.83
			c-0.96-13.65-1.96-27.3-3.04-40.95C432.37,1912.67,431.33,1911.89,429.25,1909.48z"/>
		<path class="st33" d="M487.86,1990.52c2.19,0.75,4.38,1.51,6.57,2.26C492.25,1992.03,490.06,1991.28,487.86,1990.52
			C487.86,1990.52,487.86,1990.52,487.86,1990.52z"/>
		<path class="st33" d="M495.31,1978.81c-17.48-18.78-35.08-37.42-53.45-55.36c0.78,13.14,1.5,26.28,2.17,39.43
			c-5.69,2.26-8.61,3.42-14.74,5.72v1.6c19.51,6.82,39.04,13.59,58.58,20.32C490.5,1986.73,492.99,1982.83,495.31,1978.81z"/>
		<path class="st33" d="M507.89,1951.09c-19.24-16.52-38.77-35.11-58.18-51.44c-1.83-0.09-3.81-0.45-5.89-1.1
			c0.04,6.92,0.48,12.32,0.52,19.5c18.61,17.66,36.58,35.93,54.51,54.27c3.49-6.75,6.52-13.77,9.05-21.03
			C507.89,1951.23,507.89,1951.16,507.89,1951.09z"/>
		<path class="st33" d="M441.91,1813.72c-4.15-0.01-8.4-0.17-12.75-0.49c0.01,10.39,0.01,20.78,0.02,31.17
			c4.75-2.2,7.08-2.92,11.68-5.3C441.28,1829.41,441.49,1824.41,441.91,1813.72z"/>
		<path class="st33" d="M447.03,1835.83c5.14-2.79,7.67-4.24,12.74-7.27c-1.78-6-2.67-9.06-4.45-15.37c-2.43,0.2-4.9,0.34-7.4,0.43
			C447.56,1822.92,447.38,1827.31,447.03,1835.83z"/>
		<path class="st33" d="M498.19,1810.93c-0.03,0-0.06-0.01-0.09-0.01c3.09,1.08,6.18,2.15,9.26,3.23
			C503.82,1812.9,501.87,1812.22,498.19,1810.93z"/>
		<path class="st33" d="M480.26,1808.73c-5.35,1.54-10.97,2.71-16.82,3.54c1.29,6.14,1.94,9.13,3.22,14.95
			c12.13,1.54,24.27,3.08,36.4,4.67c-3.36-7.59-7.28-14.87-11.71-21.8C487.87,1809.66,484.77,1809.28,480.26,1808.73z"/>
		<path class="st33" d="M476.91,1803.58c-4.9-1.69-9.8-3.38-14.69-5.07c0.72,2.73,1.29,5.41,1.79,8.04
			C468.46,1805.78,472.77,1804.79,476.91,1803.58z"/>
		<path class="st33" d="M446.69,1875.1c-6.78-3.67-14.08-3.7-17.69-0.41l0.03,11.66c1.76,2.59,4.46,5.04,7.85,6.87
			c7.85,4.24,16.4,3.63,19.11-1.38C458.69,1886.84,454.53,1879.35,446.69,1875.1z"/>
		<path class="st33" d="M472.48,1836.5c2.19,9.5,3.28,14.04,5.46,22.94c-6.52,6.89-13.19,13.65-19.96,20.31
			c3.96,4.98,5.32,10.57,3.02,14.81c-0.94,1.74-2.4,3.07-4.22,4.02c16.3,13.88,34.93,29.52,51.11,43.36
			c0.01-32.6,0.01-65.2,0.01-97.81c-0.3-0.85-0.59-1.7-0.9-2.54C495.5,1839.84,483.99,1838.17,472.48,1836.5z"/>
		<path class="st33" d="M446.72,1843.21c-0.48,11.34-0.72,16.74-1.2,27.31c0.97,0.41,1.95,0.87,2.91,1.39c1.03,0.56,2,1.17,2.93,1.8
			c6.74-6.77,10.12-10.28,16.84-17.63c-2.59-8.22-3.9-12.41-6.52-21.1C455.74,1838.42,452.77,1840.06,446.72,1843.21z"/>
		<path class="st33" d="M435.16,1896.43c-2.21-1.2-4.2-2.59-5.93-4.09c0,1.91,0.01,3.47,0.01,5.05c0,1.76,0,3.55,0.01,5.92
			c3.71,4.27,5.53,5.98,9.13,10.26c-0.2-6.45-0.29-9.6-0.49-15.83C436.97,1897.34,436.07,1896.92,435.16,1896.43z"/>
		<path class="st33" d="M331.9,1840.29c7.27-0.75,10.92-1.15,18.37-1.95v-0.07c-7.89-10.39-15.5-20.98-22.9-31.72
			c-3.82-1.33-6.06-2.11-9.34-3.25c-0.71-0.25-1.42-0.49-2.14-0.74c-4.35,1.33-6.52,1.97-10.91,3.21
			C313.83,1817.39,322.78,1828.9,331.9,1840.29z"/>
		<path class="st33" d="M326.46,1841.88c-8.85-11.63-17.53-23.36-26.11-35.19c-6.58,5.43-9.89,7.97-16.68,12.76
			c7.4,10.98,14.89,21.89,22.46,32.75C314.31,1848.28,318.33,1846.22,326.46,1841.88z"/>
		<path class="st33" d="M295.2,1795.4c-5.88-2.03-11.76-4.07-17.65-6.1c1.27,7.44,1.9,11.03,3.16,17.98
			C286.61,1802.8,289.5,1800.43,295.2,1795.4z"/>
		<path class="st33" d="M350.27,1824.54c2.48,1.75,3.72,2.61,6.21,4.29c4.32-7.87,6.48-11.91,10.81-20.25
			c-6.8,2.36-10.21,3.55-17.01,5.9c-4.25-1.46-6.35-2.2-10.54-3.64C343.91,1817.07,346.01,1818.52,350.27,1824.54z"/>
		<path class="st33" d="M271.36,1917.62c5.47,4.38,10.86,7.88,15.95,10.04c1.01-0.09,1.51-0.13,2.5-0.23
			c-7.17-7.86-10.83-11.76-18.45-19.62c0,1.21,0,2.23,0,3.18c0,2.19,0,3.94,0,6.55C271.36,1917.57,271.36,1917.59,271.36,1917.62z"
			/>
		<path class="st33" d="M316.4,1960.59c-3.85-4.4-5.78-6.57-9.65-10.9c-6.13,0.47-12.14-0.8-17.26-2.6
			c-0.69-0.24-1.41-0.51-2.12-0.79c-5.23-2.05-10.57-4.99-15.99-8.59c0,0.1,0,0.21,0,0.31c0,0,0,0,0.01,0
			c0,10.51,0.01,21.02,0.01,31.53c0,0.11,0,0.22,0,0.33c0.22,0.21,0.34,0.31,0.56,0.52c6.32,2.26,12.65,4.49,18.98,6.71
			c0.83,0.29,1.67,0.58,2.5,0.87c12.33,4.3,24.68,8.55,37.03,12.78c5.27,1.8,10.54,3.61,15.81,5.41
			C336.37,1984.25,326.45,1972.37,316.4,1960.59z"/>
		<path class="st33" d="M294.55,1927.25c4.62,0.1,6.89,0.14,11.42,0.22c1.41-0.85,2.75-1.91,4.04-3.19
			c5.09-5.06,9.82-11.53,14.63-18.49c-2.92-6.01-4.37-8.99-7.28-14.99c-15.37-2.6-30.71-5.29-46.03-8.15c0,0.55,0,0.82,0,1.36
			c1.68,8.63,2.52,12.93,4.18,21.78C281.97,1912.84,288.31,1920,294.55,1927.25z"/>
		<path class="st33" d="M326.38,1891.45c1.33,2.77,2,4.15,3.33,6.91c0.04-0.05,0.08-0.11,0.11-0.16c1.57-2.32,3.18-4.67,4.82-7.03
			C331.32,1891.27,329.67,1891.33,326.38,1891.45z"/>
		<path class="st33" d="M341.49,1923.41c0.94,1.94,1.41,2.92,2.36,4.87c2.55-0.64,3.85-0.95,6.43-1.55v-13.89
			C349.95,1913.3,344.08,1919.82,341.49,1923.41z"/>
		<path class="st33" d="M323.83,1886.73c5.65-0.17,8.48-0.24,14.23-0.39c3.68-5.09,7.58-10.16,11.91-14.97
			c-6.78-8.18-13.43-16.48-19.94-24.87c-8.33,4.49-12.45,6.61-20.78,10.69C314.06,1867.07,318.92,1876.91,323.83,1886.73z"/>
		<path class="st33" d="M344.43,1908.43c2.38-2.36,3.56-3.47,5.84-5.6c4.1-8.4,8.26-16.78,12.71-25.02
			c-0.42-0.26-0.82-0.54-1.2-0.85c-1.57-1.26-3.52-3.86-6.15-4.55c-1.84,3.29-3.62,6.58-5.36,9.87
			c-5.82,6.97-11.03,12.13-15.9,19.25c-0.64,0.94-1.27,1.86-1.91,2.79c2.71,4.07,4.59,8.17,6.24,12.31
			C340.6,1913.93,342.03,1910.8,344.43,1908.43z"/>
		<path class="st33" d="M323.35,1935.92c3.1-3.17,6.04-6.71,8.92-10.48c-1.71-4.46-3.2-8.89-5.25-13.26
			c-4.16,5.87-8.31,11.33-12.76,15.8c-2.69,2.7-5.68,4.6-8.96,5.66c2.92,2.91,4.9,6.22,6.65,9.7
			C315.9,1941.96,319.76,1939.58,323.35,1935.92z"/>
		<path class="st33" d="M298.09,1934.86c-0.14-0.09-0.27-0.17-0.4-0.26c-2.98-0.16-6.16-0.89-9.55-2.21
			c-5.43-2.12-11.07-5.15-16.77-9.44c0.01,4.04,0.01,6.09,0.01,10.28c5.5,3.77,10.94,6.47,16.24,8.56c0.61,0.24,1.23,0.47,1.87,0.7
			c5.03,1.76,10.8,2.89,16.61,2.21C304.26,1940.99,301.98,1937.22,298.09,1934.86z"/>
		<path class="st33" d="M271.51,1862.75c-0.04,0.04-0.09,0.07-0.13,0.11v0.13c5.78-5.03,8.19-11.72,5.38-16.02
			c-1.16-1.78-3.07-2.89-5.38-3.36v0.04c0.04,0.01,0.09,0.01,0.13,0.02V1862.75z"/>
		<path class="st33" d="M315.08,1885.9c-4.62-9.06-9.21-18.14-13.76-27.23c-7.12-0.21-13.76-0.97-21.07-1.39
			c-1.89,3.5-4.96,6.93-8.94,9.76c0.01,4.2,0.01,6.6,0.01,11.07c0,0,0,0,0,0c0,0.06,0,0.11,0,0.17
			C285.89,1880.96,300.47,1883.47,315.08,1885.9z"/>
		<path class="st33" d="M439.52,1868.63c0.41-8.68,0.61-13.11,1.02-22.28c-4.47,2.21-6.73,3.28-11.36,5.35
			c0.01,6.98,0.01,10.49,0.02,17.12C432.16,1867.94,435.74,1867.87,439.52,1868.63z"/>
		<path class="st33" d="M393.69,1891.64c-14.47,13.76-28.92,27.55-43.42,41.27v5.12c7.39,9.97,14.31,20.28,20.66,30.95
			c7.98,3.31,11.88,5.09,19.7,8.89c3.82-4.8,8.87-8.59,14.47-10.52c6.41-2.21,12.27-1.54,16.37,1.5c3.1-3.8,4.66-5.24,7.81-8.97
			c-0.01-16.65-0.02-33.74-0.03-50.39C417.41,1903.5,405.58,1897.51,393.69,1891.64z"/>
		<path class="st33" d="M405.07,1972.47c-5.13,1.77-9.67,5.65-12.69,10.45c10.07-3.49,15.08-5.21,25.56-8.82
			C414.85,1971.41,410.2,1970.69,405.07,1972.47z"/>
		<path class="st33" d="M407.25,1870.42c-7.39-4.64-11.08-6.98-18.55-11.85c-6.64,6.56-9.97,9.82-16.66,16.3
			c8.39,4.94,12.52,7.32,20.73,12.15C398.56,1880.39,401.46,1877.08,407.25,1870.42z"/>
		<path class="st33" d="M390.09,1889.93c-8.94-4.35-13.46-6.5-22.61-10.91c-0.22,0.15-0.32,0.23-0.54,0.39
			c-5.55,10.69-10.87,21.46-16.12,32.3c-0.18,0.38-0.36,0.75-0.55,1.13c0,6.26,0.04,7.52,0.04,13.88c-0.02,0-0.03,0.01-0.04,0.01
			v0.07C363.58,1914.55,376.83,1902.24,390.09,1889.93z"/>
		<path class="st33" d="M354.32,1866.13c3.92-6.73,8.13-13.43,12.72-19.96c-4.45-2.56-6.69-3.88-11.17-6.6
			c-2.23,1.82-3.35,2.72-5.59,4.52c-6.46,0.8-9.62,0.49-15.93,1.26c6.29,8.14,9.45,10.8,15.93,18.71
			C351.89,1864.9,352.7,1865.31,354.32,1866.13z"/>
		<path class="st33" d="M381.91,1854.5c-3.08,4.46-5.99,9.09-8.77,13.82c4.88-4.77,7.31-7.16,12.16-11.97
			C383.95,1855.61,383.27,1855.24,381.91,1854.5z"/>
		<path class="st33" d="M411.05,1803.31c6.22-3.64,12.29-7.56,18.09-11.64c0,0.06,0,0.11,0,0.17c4.28,0.05,8.43-0.09,12.48-0.4
			c-4.96-1.71-7.45-2.57-12.48-4.31c-4.81,1.65-9.62,3.31-14.42,4.97c-1.61,4.66-2.42,6.94-4.04,11.43
			C410.8,1803.46,410.92,1803.38,411.05,1803.31z"/>
		<path class="st33" d="M429.15,1813.23c0-0.05,0-0.1,0-0.15c-4.33,2.76-8.75,5.43-13.24,7.98c-6.05,3.44-11.63,7.79-16.78,12.76
			c-2.8,7-4.2,10.4-7.01,17.11c8.62,4.99,12.87,7.37,21.39,12.03c6.31-7.37,9.46-11.08,15.67-18.56
			C429.16,1833.86,429.16,1823.76,429.15,1813.23C429.15,1813.23,429.15,1813.23,429.15,1813.23z"/>
		<path class="st33" d="M403.45,1808.21c2-5.45,3.01-8.24,5-13.94c-11.34,3.93-22.68,7.88-34.01,11.83
			c-4.45,8.58-9.02,17.11-13.73,25.56c4.64,3.06,6.95,4.53,11.56,7.39C381.15,1827.38,391.48,1816.73,403.45,1808.21z"/>
		<path class="st33" d="M350.27,1959.51c-4.09-8.9-8.24-17.77-12.42-26.62c-1.66-0.06-2.48-0.08-4.12-0.14
			c-1.99,2.43-4.02,4.75-6.12,6.9c-4.94,5.06-10.39,7.95-15.86,9.26c13,14.75,25.79,28.38,38.53,43.35c2.56,1.2,3.82,1.81,6.34,3.07
			c10.83-3.78,15.98-5.57,26.34-9.16c-7.7-3.88-11.56-5.69-19.51-9.04C358.26,1968.42,355.62,1967.19,350.27,1959.51z"/>
		<path class="st33" d="M359.38,1865.87c3.22,0.74,5.56,3.01,7.59,4.76c3.74-6.55,7.72-12.96,12.02-19.08
			c-2.54-1.37-5.46-2.33-7.99-3.77C366.84,1853.68,362.99,1859.75,359.38,1865.87z"/>
		<path class="st33" d="M375.89,1841.13c2.48,1.53,5.44,2.44,7.93,3.88c8.53-11.1,18.77-21.11,30.91-28.1
			c4.88-2.81,9.72-5.75,14.41-8.8c0-1.61,0-2.94,0-4.2c0,1.26,0,2.58,0,4.2h0c0,0.05,0,0.1,0,0.15c8.65,0.53,16.9,0.41,24.75-0.34
			c-0.69-3.79-1.5-7.68-2.66-11.69c-6.94,0.89-14.29,1.22-22.08,0.99c0,2.25,0,3.93,0,5.6c0-1.66,0-3.34,0-5.6h0
			c0-0.06,0-0.11,0-0.17c-5.41,3.7-11.08,7.28-16.92,10.69C397.92,1816.1,385.93,1828.01,375.89,1841.13z"/>
		<path class="st33" d="M428.94,1874.75c0.02-0.02,0.04-0.03,0.06-0.05l0-0.05c-0.59,0.53-1.1,1.13-1.48,1.84
			c-1.55,2.86-0.84,6.54,1.51,9.96l0-0.09c-0.02-0.03-0.04-0.06-0.06-0.09L428.94,1874.75z"/>
		<path class="st33" d="M426.49,1869.94c0.83-0.46,1.74-0.83,2.71-1.12c-0.01-6.65-0.01-10.12-0.02-17.12
			c-4.68,5.55-7.03,7.89-11.76,13.39C421.1,1867.08,423.14,1868.18,426.49,1869.94z"/>
		<path class="st33" d="M429.23,1892.34c-1.87-1.63-3.45-3.39-4.69-5.2l0,0.12c-2.17-3.15-3.31-6.46-3.14-9.49
			c-3.72-2.1-6.11-3.46-10.31-5.88c-5.43,6.21-8.16,9.29-13.6,15.47c10.6,5.3,21.16,10.65,31.75,15.95c0-2.35,0-4.15-0.01-5.92
			C429.24,1895.82,429.23,1894.27,429.23,1892.34z"/>
		<path class="st33" d="M192.45,1858.61c1.21-0.5,2.42-0.98,3.63-1.48c0.6-2.33,1.26-4.64,1.95-6.93c-1.86,0.75-3.73,1.49-5.58,2.25
			c0-12.69,0-25.37-0.01-38.06c-0.07,0.02-0.13,0.05-0.2,0.07c0,20.93,0,41.86,0,62.79c0.06-0.51,0.14-1.02,0.21-1.53
			C192.46,1870.26,192.45,1865.82,192.45,1858.61z"/>
		<path class="st33" d="M202.44,1993.96c4.24-3.64,8.47-7.29,12.69-10.95c-1.38-2.24-2.71-4.52-3.99-6.83
			c-6.2,5.82-12.41,11.63-18.68,17.39c0-24.41-0.01-48.81-0.01-73.21c0.05,0.12,0.09,0.24,0.14,0.35c-0.12-0.86-0.25-1.72-0.35-2.58
			c0,26.47,0,52.95,0,79.42c8.77-3.08,17.55-6.14,26.33-9.19c0,0,0-0.01-0.01-0.01C213.2,1990.22,207.82,1992.09,202.44,1993.96z"/>
		<polygon class="st33" points="271.38,1903.94 271.38,1895.28 270.11,1895.56 		"/>
		<path class="st33" d="M271.28,1839.57c4.19,0.18,7.7,1.72,9.63,4.67c1.64,2.5,1.88,5.65,1,8.93c6.57,0.26,10.01,0.36,16.57,0.5
			c-7.58-10.49-15.12-21.01-22.61-31.56c-1.82,0.16-2.74,0.24-4.59,0.38c0,2.41,0,4.41,0,6.25
			C271.28,1832.3,271.28,1835.06,271.28,1839.57C271.28,1839.57,271.28,1839.57,271.28,1839.57z"/>
		<path class="st33" d="M246.53,1978.7c-7.93-2.51-11.67-3.76-19.48-6.02c-3.97,3.45-7.93,6.89-11.91,10.33
			c1.11,1.8,2.26,3.59,3.44,5.34C227.89,1985.12,237.2,1981.9,246.53,1978.7z"/>
		<path class="st33" d="M223.79,1964.27c-7.44-5.56-11.26-8.12-19.31-12.83c-3.81-10.31-7.71-20.56-11.88-30.73
			c2.82,19.86,9.22,38.57,18.55,55.47C215.37,1972.22,219.59,1968.25,223.79,1964.27z"/>
		<path class="st33" d="M220.34,1804.49c-9.34,3.19-18.65,6.46-27.89,9.92c0,0,0,0,0,0c9.22-3.37,18.49-6.59,27.78-9.76
			C220.26,1804.59,220.3,1804.54,220.34,1804.49z"/>
		<path class="st33" d="M198.03,1850.21c19.17-7.75,38.48-15.13,57.76-22.61c-2.44-10.86-4.68-21.76-6.89-32.68
			c-9.55,3.26-19.12,6.47-28.68,9.72C210.6,1818.44,203.05,1833.78,198.03,1850.21z"/>
		<path class="st33" d="M271.27,1816.59c0-3.91,0-5.89,0-9.97c-1.29-7.02-1.93-10.67-3.19-18.36c-2.57,0.91-4.54,1.61-6.58,2.31
			c-2.33,0.81-4.66,1.61-6.99,2.41c2.14,10.5,4.31,21,6.69,31.45C265.35,1821.3,267.38,1819.73,271.27,1816.59z"/>
		<path class="st33" d="M219.15,1914c-6.28-7.53-15.69-11.42-25.34-12.39c6.74,14.23,13.25,28.48,19.34,42.99
			c8.39,5.5,12.36,8.48,20.26,14.9c8.75-7.43,17.57-14.75,26.48-21.98C244.12,1935.1,229.28,1926.14,219.15,1914z"/>
		<path class="st33" d="M237.98,1900.06c7.99,10.11,20.42,16.76,33.38,18.01c0-0.19,0-0.35,0-0.53c0-2.69,0-4.47,0-6.55
			c0-0.75,0-1.55,0-2.46c-0.98-0.35-1.47-0.52-2.44-0.87c-1.86-9.49-2.76-14.06-4.5-23.26c-12.5,2.01-25.02,3.9-37.52,5.88
			C231.02,1892.76,234.79,1896.02,237.98,1900.06z"/>
		<path class="st33" d="M271.37,1938.02c-1.3,0.08-2.58,0.11-3.83,0.1c-9.78,7.92-19.37,16.08-28.77,24.44
			c10.67,2.79,21.34,5.39,32.09,7.81c0.21-0.07,0.31-0.1,0.52-0.18c0-0.22,0-0.43,0-0.65
			C271.38,1959.04,271.38,1948.53,271.37,1938.02z"/>
		<path class="st33" d="M201.86,1897.3c3.88-2.48,7.78-5.15,11.76-7.31c-7.23-2.37-14.83-3.14-21.38-3.13c0,3.98,0,5.94,0,9.87
			c2.87,0.16,5.86,0.52,8.86,1.12C201.34,1897.67,201.59,1897.48,201.86,1897.3z"/>
		<path class="st33" d="M233.45,1903.41c-3.71-4.67-8.25-8.2-13.21-10.7c-1.37,0.5-2.72,1.07-4,1.78c-2.86,1.59-5.69,3.36-8.51,5.17
			c6.04,2.12,11.68,5.6,15.99,10.95c12.22,15.18,28.7,21.08,47.65,22.61c0-4.21,0-6.22-0.01-10.28
			C256.19,1920.38,243.27,1915.77,233.45,1903.41z"/>
		<path class="st33" d="M271.38,1862.85v-19.22c-4.15-0.91-9.68,0.28-14.74,3.59c-7.8,5.1-11.5,13.25-8.26,18.21
			c3.24,4.95,12.19,4.83,19.99-0.26C269.47,1864.45,270.46,1863.67,271.38,1862.85z"/>
		<path class="st33" d="M271.28,1839.57C271.28,1839.57,271.28,1839.57,271.28,1839.57c0-4.27,0-7.26-0.01-10.82
			c0-1.77,0-3.73,0-6.21c-3.74,3.23-5.68,4.36-9.64,7.59c0.41,4.42,0.64,6.71,1.04,10.75
			C265.68,1839.89,268.62,1839.46,271.28,1839.57z"/>
		<path class="st33" d="M192.46,1882.37c9.68-0.23,19.4,1.21,28.42,4.86c14.34-2.42,28.69-4.77,43.03-7.17
			c-0.6-3.41-0.91-5.19-1.47-8.5c-7.68,2.49-14.93,1.37-18.06-3.42c-4.19-6.41,0.59-16.95,10.69-23.55c0.89-0.58,1.8-1.1,2.71-1.58
			c-0.56-3.63-0.88-5.73-1.48-9.72c-20.1,7.89-40.23,15.67-60.21,23.86c-1.56,6.07-2.77,12.28-3.62,18.6
			C192.46,1877.75,192.46,1879.89,192.46,1882.37z"/>
		<path class="st33" d="M271.31,1867.03c-0.36,0.26-0.71,0.52-1.09,0.76c-0.99,0.65-1.99,1.21-3,1.74c0.53,3.86,0.83,5.98,1.4,10
			c1.08-0.57,1.62-0.85,2.7-1.42C271.32,1873.71,271.32,1871.33,271.31,1867.03z"/>
	</g>
</g>
<line class="st34" x1="482" y1="2014.91" x2="482" y2="2015.91"/>
<g>
	<g>
		<rect x="976.27" y="2145.54" class="st35" width="597.94" height="10.53"/>
		<path class="st35" d="M1497.43,2017.43c12.87-30.02,19.39-61.93,19.39-94.98c0-32.61-6.39-64.25-18.99-94.04
			c-12.17-28.77-29.59-54.6-51.77-76.79c-22.19-22.18-48.02-39.6-76.79-51.77c-29.79-12.6-61.42-18.99-94.04-18.99
			s-64.25,6.39-94.04,18.99c-28.77,12.17-54.6,29.59-76.79,51.77c-22.18,22.18-39.6,48.02-51.77,76.79
			c-12.6,29.79-18.99,61.43-18.99,94.04c0,33.05,6.52,64.96,19.39,94.98h-76.78v10.53h597.94v-10.53H1497.43z M1044.18,1922.46
			c0-127.4,103.65-231.06,231.06-231.06s231.06,103.65,231.06,231.06c0,33.13-6.85,65.07-20.36,94.98h-421.39
			C1051.03,1987.53,1044.18,1955.59,1044.18,1922.46z"/>
	</g>
	<g>
		<defs>
			<path id="SVGID_1_" d="M1487.01,1915.46c0-136.15-125.52-242.98-267.15-211.1c-80.58,18.14-143.58,81.78-161.11,162.5
				c-11.75,54.07-3.29,105.71,19.24,148.84H1123v0.22h55v-0.22h47.2l3.35-132.09c0.06-2.14-1-4.11-2.71-5.01
				c-11.68-6.16-20.05-19.87-20.11-39.17c-0.07-22.18,13.41-53.79,30.14-53.85c16.73-0.06,30.39,30.99,30.46,53.62
				c0.06,19.43-8.34,33.28-20.1,39.43c-1.71,0.9-2.79,2.87-2.72,5.01l3.34,132.04h49.75l5.59-123.87c0-3.3-1.57-6.4-4.23-8.35
				l-4.59-3.37c-8.89-6.52-8.92-21.98-7.57-32.92l5.56-64.31h3.89l0.85,68.1h2.59l1.69-68.1h5.43l0.85,68.1h2.59l1.69-68.1h5.43
				l0.85,68.1h2.59l1.69-68.1h3.91l5.56,64.31c1.35,10.94,1.32,26.4-7.57,32.92l-4.59,3.37c-2.66,1.95-4.23,5.05-4.23,8.35
				l5.59,123.87H1358v0.22h55v-0.22h49.49C1478.15,1985.72,1487.01,1951.62,1487.01,1915.46z"/>
		</defs>
		<clipPath id="SVGID_2_">
			<use xlink:href="#SVGID_1_"  style="overflow:visible;"/>
		</clipPath>
		<g class="st36">
			<polygon class="st33" points="1099.97,1827.63 1097.19,1828.26 1099.97,1847.39 			"/>
			<g>
				<polygon class="st37" points="1099.7,2013.62 907,2088.44 907,1634.74 1099.7,1559.91 				"/>
				<polygon class="st38" points="1099.7,2013.62 1272.67,2081.41 1272.67,1627.7 1099.7,1559.91 				"/>
				<polygon class="st37" points="1445.63,2013.62 1272.67,2081.41 1272.67,1627.7 1445.63,1559.91 				"/>
				<polygon class="st38" points="1445.63,2013.62 1637.56,2088.44 1637.56,1634.74 1445.63,1559.91 				"/>
			</g>
			<g>
				<g>
					<g>
						<path class="st39" d="M1618.6,2060.91c-0.01-139.2,0-278.4,0-417.59c-57.67-21.06-115.51-41.6-173.27-62.38
							c0.02,139.2,0.29,278.39,0.31,417.59C1503.22,2019.51,1560.86,2040.36,1618.6,2060.91z"/>
						<path class="st40" d="M1445.63,1974.95c7.31-3.52,10.89-5.28,17.9-8.74c-2.11-31.14-4.3-62.28-6.66-93.41
							c-4.48-5.51-6.74-7.28-11.3-12.78C1445.6,1898.65,1445.62,1936.31,1445.63,1974.95z"/>
						<path class="st41" d="M1445.63,1998.52c57.29,20.88,114.63,41.64,172.07,62.07c0-4.67,0-6.99,0-11.56
							c-47.43-53.2-94.67-106.41-144.56-157.15c1.7,29.98,3.29,59.95,4.75,89.94c-12.47,5.16-18.85,7.79-32.27,13.05
							C1445.63,1996.32,1445.63,1997.05,1445.63,1998.52z"/>
						<path class="st41" d="M1490.34,1837.59c-4.01-0.21-8.34-1.02-12.9-2.5c0.08,15.78,1.06,28.11,1.14,44.48
							c47.6,47.06,93.27,96.03,139.13,144.92c0.01-23.19,0-46.38,0.01-69.57C1575.59,1917.23,1532.84,1874.82,1490.34,1837.59z"/>
						<g>
							<path class="st41" d="M1445.32,1580.93c0,4.34,0,6.49,0,10.74c9.37,0.12,18.46-0.2,27.33-0.91
								C1461.8,1586.86,1456.34,1584.91,1445.32,1580.93z"/>
							<path class="st41" d="M1445.34,1640.46c0.01,24.02,0.02,47.07,0.05,71.1c10.41-5.01,15.5-6.66,25.58-12.09
								c0.92-22.1,1.37-33.51,2.29-57.89C1464.17,1641.58,1454.87,1641.2,1445.34,1640.46z"/>
						</g>
						<g>
							<path class="st41" d="M1486.42,1641.35c-0.78,21.22-1.16,31.24-1.94,50.66c11.24-6.37,16.8-9.68,27.88-16.58
								c-3.89-13.68-5.84-20.67-9.74-35.06C1497.3,1640.83,1491.9,1641.16,1486.42,1641.35z"/>
						</g>
						<path class="st41" d="M1596.47,1635.23c-15.79-2.05-23.61-3.05-39.25-5.03c-11.72,3.51-24.02,6.19-36.82,8.08
							c2.83,14.01,4.25,20.82,7.06,34.1c30.1,3.99,60.2,7.92,90.27,12.07c0-15.96,0-24.21,0-41.46
							C1609.19,1639.86,1604.94,1638.32,1596.47,1635.23z"/>
						<path class="st42" d="M1445.34,1629.12c18.94,1.2,37,0.92,54.17-0.78c-1.5-8.65-3.29-17.52-5.83-26.67
							c-15.18,2.03-31.27,2.79-48.35,2.25C1445.34,1614.24,1445.33,1619.27,1445.34,1629.12z"/>
						<path class="st42" d="M1517.73,1606.9c1.57,6.24,2.83,12.35,3.92,18.34c9.77-1.76,19.21-4.03,28.3-6.8
							C1537.07,1613.82,1530.64,1611.52,1517.73,1606.9z"/>
					</g>
					<path class="st40" d="M1444.93,1807.08c3.85,5.98,9.82,11.64,17.33,15.87c17.17,9.68,35.89,8.27,41.83-3.15
						c5.92-11.42-3.19-28.52-20.36-38.2c-14.92-8.42-31.01-8.44-38.86-0.81L1444.93,1807.08z"/>
					<path class="st41" d="M1540.19,1693.55c4.79,21.66,7.19,32.04,11.95,52.33c-14.28,15.72-28.87,31.15-43.69,46.32
						c8.66,11.37,11.65,24.1,6.62,33.79c-2.05,3.96-5.25,7.01-9.25,9.17c35.68,31.65,76.46,67.34,111.89,98.9
						c0.01-76.2,0.01-152.39,0.02-228.6C1591.9,1701.37,1566.05,1697.46,1540.19,1693.55z"/>
					<path class="st40" d="M1487.54,1774.31c2.25,1.27,4.37,2.67,6.42,4.11c14.76-15.44,22.16-23.46,36.86-40.2
						c-5.68-18.74-8.53-28.3-14.26-48.14c-13.01,7.84-19.52,11.6-32.76,18.77c-1.05,25.87-1.58,38.19-2.63,62.29
						C1483.3,1772.09,1485.43,1773.12,1487.54,1774.31z"/>
					<path class="st40" d="M1468.03,1766.85c0.9-19.8,1.34-29.91,2.24-50.82c-9.79,5.05-14.74,7.49-24.87,12.2
						c0.02,15.92,0.02,23.93,0.04,39.05C1451.93,1765.26,1459.77,1765.1,1468.03,1766.85z"/>
					<path class="st41" d="M1458.5,1830.24c-4.83-2.73-9.19-5.9-12.99-9.34c0.02,9.26,0.02,14.86,0.03,25.02
						c8.12,9.74,12.11,13.64,19.99,23.4c-0.43-14.7-0.64-21.9-1.07-36.12C1462.47,1832.33,1460.48,1831.36,1458.5,1830.24z"/>
				</g>
				<g>
					<g>
						<path class="st39" d="M1272.67,2060.91c0-139.2,0-278.4,0-417.59c-57.65-20.79-115.27-41.7-172.97-62.38
							c0.01,139.2,0.26,278.39,0.27,417.59C1157.34,2019.91,1215.04,2040.29,1272.67,2060.91z"/>
						<g>
							<g>
								<path class="st41" d="M1197.42,1616.13c-9.52,3.03-14.28,4.5-23.88,7.33c19.34,26.51,38.94,52.75,58.91,78.74
									c15.91-1.72,23.91-2.62,40.22-4.45c0-0.06,0-0.09,0-0.16c-17.27-23.69-33.94-47.84-50.13-72.36
									C1212.49,1621.59,1207.48,1619.77,1197.42,1616.13z"/>
								<path class="st41" d="M1163.39,1625.55c-14.4,12.39-21.65,18.18-36.51,29.1c16.21,25.03,32.59,49.94,49.17,74.71
									c17.89-8.95,26.69-13.64,44.49-23.54C1201.18,1679.3,1182.16,1652.54,1163.39,1625.55z"/>
								<path class="st41" d="M1113.48,1585.87c2.78,16.99,4.16,25.17,6.93,41.03c12.91-10.23,19.23-15.64,31.74-27.13
									C1136.97,1594.3,1129.28,1591.53,1113.48,1585.87z"/>
								<path class="st41" d="M1249.6,1635c9.15,14.23,13.74,17.53,23.07,31.26c0-10.38,0-12.03,0-22.95
									C1263.37,1639.97,1258.76,1638.3,1249.6,1635z"/>
								<g>
									<path class="st41" d="M1099.9,1856.2c0.01,8.84,0.01,13.3,0.01,22.38c11.98,9.98,23.78,17.98,34.91,22.9
										c2.21-0.21,3.3-0.3,5.48-0.52C1124.61,1883.04,1116.59,1874.13,1099.9,1856.2z"/>
								</g>
								<path class="st41" d="M1263.89,2057.75c-21.65-27.19-43.38-54.29-65.38-81.17c-8.43-10.04-12.64-14.99-21.12-24.86
									c-13.42,1.06-26.57-1.84-37.79-5.93c-1.52-0.56-3.09-1.17-4.64-1.8c-11.44-4.69-23.15-11.39-35.01-19.59
									c0.02,24.47,0.02,48.92,0.02,73.39c0.5,0.48,0.75,0.72,1.24,1.2C1155.26,2019.11,1209.58,2038.38,1263.89,2057.75z"/>
								<path class="st41" d="M1200.62,1817.41c-33.64-5.93-67.23-12.07-100.77-18.6c0,1.25,0,1.87,0,3.11
									c3.68,19.68,5.52,29.5,9.15,49.68c14.15,16.08,28.03,32.41,41.69,48.95c10.11,0.23,15.08,0.33,25.01,0.5
									c3.08-1.94,6.03-4.35,8.85-7.28c11.14-11.53,21.49-26.3,32.02-42.18C1210.17,1837.89,1207,1831.08,1200.62,1817.41z"/>
								<g>
									<path class="st41" d="M1227.89,1834.28c3.43-5.29,6.97-10.66,10.56-16.04c-7.27,0.24-10.89,0.37-18.09,0.64
										c2.91,6.32,4.37,9.46,7.29,15.76C1227.74,1834.53,1227.82,1834.4,1227.89,1834.28z"/>
									<path class="st41" d="M1272.67,1867.67c-0.72,1.06-13.55,15.93-19.23,24.11c2.06,4.43,3.09,6.65,5.16,11.11
										c5.63-1.46,8.46-2.17,14.17-3.57C1272.77,1884.82,1272.67,1881.94,1272.67,1867.67z"/>
								</g>
								<g>
									<path class="st41" d="M1272.67,1710.86c-14.14,1.83-21.07,1.12-34.88,2.88c13.77,18.57,20.69,24.64,34.88,42.69
										C1272.67,1737.07,1272.67,1731.78,1272.67,1710.86z"/>
								</g>
								<path class="st41" d="M1245.91,1807.24c8.05-11.62,16.6-23.18,26.06-34.14c-14.85-18.65-29.39-37.58-43.66-56.73
									c-18.24,10.23-27.25,15.08-45.48,24.38c10.55,22.51,21.2,44.96,31.94,67.37
									C1227.15,1807.75,1233.34,1807.57,1245.91,1807.24z"/>
								<path class="st41" d="M1272.67,1974.14c-8.96-20.3-18.03-40.54-27.19-60.73c-3.63-0.13-5.43-0.19-9.03-0.32
									c-4.35,5.53-8.79,10.83-13.4,15.75c-10.81,11.55-22.75,18.14-34.72,21.13c28.46,33.63,56.46,64.74,84.34,98.89
									C1272.67,2022.97,1272.67,2000.01,1272.67,1974.14z"/>
							</g>
							<g>
								<path class="st42" d="M1272.67,1797.95c-12.75,15.91-24.14,27.67-34.8,43.91c-1.4,2.15-2.79,4.25-4.17,6.37
									c5.94,9.28,10.04,18.63,13.66,28.07c4.13-6.12,7.27-13.25,12.53-18.68c5.22-5.38,7.78-7.91,12.78-12.76
									C1272.67,1826.55,1272.67,1816.76,1272.67,1797.95z"/>
								<path class="st42" d="M1221.78,1866.16c-9.1,13.39-18.18,25.84-27.94,36.04c-5.89,6.16-12.44,10.49-19.61,12.92
									c6.39,6.63,10.73,14.18,14.56,22.13c8.63-3.15,17.1-8.59,24.94-16.92c6.79-7.23,13.23-15.31,19.53-23.91
									C1229.52,1886.24,1226.25,1876.12,1221.78,1866.16z"/>
								<path class="st42" d="M1158.44,1917.9c-0.3-0.2-0.6-0.4-0.88-0.6c-6.53-0.37-13.49-2.03-20.92-5.04
									c-11.88-4.82-24.24-11.74-36.72-21.54c0.01,9.26,0.01,13.83,0.02,23.44c12.03,8.6,23.95,14.77,35.55,19.54
									c1.34,0.55,2.7,1.08,4.1,1.59c11.01,4.02,23.65,6.6,36.37,5.03C1171.94,1931.88,1166.96,1923.3,1158.44,1917.9z"/>
							</g>
						</g>
					</g>
					<path class="st40" d="M1111.75,1717.4c-2.55-4.05-6.71-6.59-11.78-7.68v44.22C1112.61,1742.47,1117.89,1727.2,1111.75,1717.4z"
						/>
					<path class="st41" d="M1165.52,1744.11c-15.58-0.48-30.13-2.22-46.13-3.18c-4.14,7.98-10.86,15.81-19.58,22.26
						c0.01,9.94,0.02,15.36,0.02,25.65c31.89,6.11,63.82,11.84,95.8,17.38C1185.53,1785.56,1175.48,1764.85,1165.52,1744.11z"/>
					<path class="st40" d="M1120.83,1711.22c3.58,5.71,4.12,12.88,2.19,20.38c14.39,0.6,21.91,0.81,36.26,1.13
						c-16.6-23.92-33.1-47.93-49.51-72c-3.99,0.37-6,0.54-10.04,0.87c0.01,16.14,0.02,24.19,0.02,38.95
						C1108.93,1700.97,1116.6,1704.49,1120.83,1711.22z"/>
				</g>
			</g>
			<g>
				<g>
					<g>
						<path class="st43" d="M1445.63,1998.52c-0.02-139.2-0.29-278.39-0.31-417.59c-57.61,20.6-115.1,41.59-172.66,62.38
							c0,109.94,0,249.14,0,417.59C1330.28,2039.98,1387.93,2019.18,1445.63,1998.52z"/>
						<g>
							<g>
								<path class="st44" d="M1367.72,1819.32c-31.68,31.39-63.3,62.84-95.05,94.14c0,4.64,0,6.98,0,11.68
									c16.18,22.74,31.33,46.27,45.22,70.59c17.47,7.56,26,11.62,43.12,20.27c8.36-10.95,19.42-19.59,31.68-24.01
									c14.03-5.05,26.85-3.51,35.84,3.41c6.79-8.66,10.2-11.94,17.1-20.46c-0.01-37.97-0.04-76.95-0.07-114.93
									C1419.64,1846.38,1393.75,1832.7,1367.72,1819.32z"/>
								<path class="st44" d="M1420.81,2007.41c-6.79-6.13-16.96-7.76-28.18-3.72c-11.23,4.03-21.18,12.89-27.77,23.84
									C1386.91,2019.57,1397.87,2015.63,1420.81,2007.41z"/>
							</g>
							<g>
								<path class="st33" d="M1320.3,1781.08c14.65-14.79,21.94-22.21,36.48-37.18c16.37,11.1,24.45,16.45,40.62,27.02
									c-12.67,15.2-19.02,22.75-31.71,37.87C1347.7,1797.78,1338.66,1792.34,1320.3,1781.08z"/>
								<path class="st33" d="M1272.67,1643.31c0,9.38,0,13.96,0,22.95c5.43,3.99,8.15,5.95,13.58,9.78
									c9.46-17.96,14.19-27.16,23.66-46.19C1295.03,1635.25,1287.55,1637.95,1272.67,1643.31z"/>
								<g>
									<path class="st33" d="M1272.67,1899.52c29.12-27.95,58.14-56.01,87.15-84.1c-19.58-9.92-29.46-14.82-49.49-24.89
										c-0.48,0.35-0.71,0.53-1.18,0.88c-12.14,24.38-23.8,48.94-35.28,73.68c-0.4,0.87-0.8,1.72-1.2,2.58
										C1272.67,1876.52,1272.67,1882.84,1272.67,1899.52z"/>
								</g>
								<g>
									<path class="st33" d="M1284.91,1700.54c-4.88,4.14-7.34,6.2-12.24,10.32c0,18.91,0,27.95,0,45.56
										c3.55,1.9,5.32,2.84,8.85,4.72c8.59-15.35,17.79-30.64,27.84-45.54C1299.62,1709.75,1294.72,1706.76,1284.91,1700.54z"/>
									<path class="st33" d="M1322.73,1766.12c10.68-10.87,16-16.33,26.62-27.3c-2.96-1.68-4.45-2.53-7.43-4.22
										C1335.19,1744.77,1328.81,1755.33,1322.73,1766.12z"/>
								</g>
								<g>
									<path class="st33" d="M1413.76,1592.26c-3.52,10.63-5.3,15.84-8.85,26.08c0.27-0.16,0.53-0.34,0.8-0.5
										c13.62-8.3,26.91-17.24,39.61-26.56c0-4.1,0-6.17,0-10.35C1432.9,1585.38,1426.57,1587.65,1413.76,1592.26z"/>
									<path class="st33" d="M1445.34,1640.13c-9.48,6.29-19.16,12.38-28.99,18.19c-13.25,7.84-25.45,17.76-36.74,29.1
										c-6.14,15.96-9.2,23.72-15.35,39.03c18.88,11.38,28.16,16.8,46.82,27.44c13.81-16.8,20.7-25.27,34.31-42.33
										C1445.37,1687.75,1445.35,1663.94,1445.34,1640.13z"/>
								</g>
								<g>
									<path class="st33" d="M1325.56,1624.19c-9.74,19.58-19.76,39.02-30.07,58.3c10.16,6.98,15.22,10.33,25.31,16.86
										c19.47-26.61,42.06-50.91,68.28-70.34c4.39-12.44,6.58-18.78,10.94-31.8C1375.2,1606.18,1350.38,1615.18,1325.56,1624.19z"
										/>
								</g>
								<path class="st33" d="M1344.2,2034.98c-16.85-8.84-25.31-12.97-42.71-20.62c-11.35-19.91-17.13-22.71-28.83-40.23
									c0,27.03,0,47.68,0,74.72c5.6,2.73,8.37,4.12,13.88,7.01C1310.26,2047.25,1321.54,2043.17,1344.2,2034.98z"/>
							</g>
							<g>
								<path class="st45" d="M1272.67,1844.85c8.97-19.16,18.07-38.28,27.83-57.07c-0.92-0.6-1.8-1.24-2.63-1.94
									c-3.44-2.88-7.72-8.81-13.47-10.39c-4.03,7.5-7.93,15.01-11.73,22.5C1272.67,1816.99,1272.67,1826.26,1272.67,1844.85z"/>
								<path class="st45" d="M1318.06,1719.26c-9.12,13.47-17.56,27.31-25.45,41.29c7.04,1.69,12.18,6.86,16.62,10.85
									c8.19-14.94,16.89-29.56,26.32-43.53C1329.99,1724.73,1323.6,1722.56,1318.06,1719.26z"/>
								<path class="st45" d="M1445.33,1603.55c-11.83,8.44-24.26,16.6-37.05,24.39c-31.31,19.07-57.57,46.24-79.53,76.17
									c5.44,3.49,11.91,5.55,17.37,8.85c18.66-25.31,41.09-48.14,67.66-64.09c10.67-6.41,21.28-13.1,31.55-20.08
									C1445.33,1618.93,1445.34,1613.89,1445.33,1603.55z"/>
							</g>
						</g>
					</g>
					<path class="st44" d="M1445.01,1780.56c-1.3,1.21-2.41,2.58-3.24,4.19c-3.4,6.53-1.85,14.92,3.3,22.72L1445.01,1780.56z"/>
					<path class="st44" d="M1445.45,1767.27c-0.01-15.16-0.02-23.08-0.04-39.05c-10.24,12.65-15.4,18-25.75,30.55
						c8.04,4.54,12.51,7.04,19.85,11.06C1441.33,1768.78,1443.32,1767.92,1445.45,1767.27z"/>
					<path class="st33" d="M1435.25,1809.04l0.01,0.27c-4.74-7.19-7.24-14.75-6.88-21.64c-8.13-4.78-13.38-7.9-22.56-13.42
						c-11.9,14.16-17.85,21.19-29.77,35.29c23.19,12.08,46.32,24.29,69.5,36.39c-0.01-10.24-0.01-15.69-0.03-25.02
						C1441.42,1817.2,1437.95,1813.18,1435.25,1809.04z"/>
				</g>
				<g>
					<g>
						<path class="st43" d="M1099.97,1998.52c-0.01-139.2-0.26-278.39-0.27-417.59c-57.42,21.5-115.65,40.51-172.97,62.38
							c0,139.2,0,278.39,0,417.59C984.39,2039.8,1042.15,2019.1,1099.97,1998.52z"/>
						<path class="st33" d="M1045.56,2017.9c-17.35-5.73-25.55-8.57-42.65-13.72c-17.92,16.23-35.85,32.43-53.85,48.54
							C981.2,2041.03,1013.36,2029.43,1045.56,2017.9z"/>
						<path class="st33" d="M927.22,2051.82c23.05-22.07,45.83-44.43,68.57-66.84c-16.28-12.68-24.64-18.51-42.26-29.26
							c-8.43-23.79-17.07-47.44-26.33-70.9C927.21,1940.49,927.22,1996.15,927.22,2051.82z"/>
						<path class="st33" d="M927.17,1643.15c0.01,28.93,0.01,57.87,0.01,86.81c45.96-19.6,92.36-38,138.67-56.69
							c-5.36-24.82-10.27-49.72-15.11-74.66C1009.41,1613.05,968,1627.24,927.17,1643.15z"/>
						<path class="st33" d="M1063.03,1594.27c4.68,23.98,9.43,47.93,14.66,71.79c9.08-7.18,13.52-10.77,22.03-17.93
							c-0.01-8.92-0.01-13.45-0.01-22.73c-2.83-16.02-4.22-24.34-6.97-41.87C1081.47,1587.71,1075.45,1589.87,1063.03,1594.27z"/>
						<g>
							<path class="st33" d="M985.62,1870.33c-13.75-17.17-34.34-26.06-55.48-28.26c14.75,32.45,29.01,64.95,42.34,98.06
								c18.37,12.54,27.05,19.33,44.35,33.98c19.15-16.94,38.46-33.64,57.98-50.13C1040.28,1918.45,1007.8,1898.02,985.62,1870.33z"
								/>
							<path class="st33" d="M1099.9,1857.84c-2.15-0.79-3.22-1.2-5.35-1.99c-4.08-21.65-6.03-32.07-9.84-53.05
								c-27.36,4.59-54.76,8.89-82.13,13.42c9.03,5.67,17.28,13.1,24.26,22.32c17.49,23.07,44.7,38.24,73.07,41.09
								C1099.92,1870.8,1099.91,1866.45,1099.9,1857.84z"/>
						</g>
						<path class="st33" d="M1099.97,1998.52c0-24.47-0.01-48.94-0.01-73.41c-2.85,0.18-5.65,0.25-8.4,0.23
							c-21.41,18.07-42.4,36.67-62.99,55.75c23.35,6.36,46.72,12.29,70.26,17.83C1099.28,1998.76,1099.51,1998.68,1099.97,1998.52z"
							/>
						<path class="st45" d="M947.79,1832.24c8.49-5.66,17.04-11.74,25.75-16.68c-15.82-5.41-32.45-7.15-46.8-7.14
							c0,9.07,0,13.55,0,22.52c6.28,0.38,12.83,1.18,19.39,2.56C946.63,1833.07,947.19,1832.65,947.79,1832.24z"/>
						<path class="st45" d="M1099.93,1890.73c-33.21-5.84-61.49-16.36-83-44.57c-8.13-10.66-18.07-18.72-28.91-24.4
							c-3,1.13-5.95,2.44-8.75,4.07c-6.26,3.62-12.45,7.67-18.63,11.79c13.23,4.83,25.58,12.77,35,24.97
							c26.75,34.62,62.82,48.09,104.32,51.57C1099.95,1904.62,1099.94,1899.94,1099.93,1890.73z"/>
					</g>
					<path class="st44" d="M1100.25,1709.86c-9.12-2.18-21.36,0.52-32.54,8.14c-17.07,11.64-25.17,30.23-18.08,41.53
						c7.09,11.29,26.68,11.03,43.76-0.6c2.49-1.69,4.76-3.55,6.86-5.51V1709.86z"/>
					<path class="st44" d="M1099.76,1700.56c-0.01-15.43-0.02-21.83-0.03-38.86c-8.19,7.37-12.44,9.95-21.11,17.31
						c0.91,10.08,1.39,15.3,2.27,24.53C1087.48,1701.27,1093.92,1700.3,1099.76,1700.56z"/>
					<path class="st33" d="M1040.83,1765.7c-9.17-14.61,1.3-38.66,23.4-53.71c1.96-1.33,3.94-2.51,5.94-3.61
						c-1.23-8.28-1.93-13.06-3.24-22.18c-46.65,19.08-93.41,37.85-139.74,57.79c0,22.47,0.01,33.14,0.01,54.18
						c21.2-0.52,42.48,2.75,62.2,11.08c31.38-5.53,62.8-10.89,94.19-16.36c-1.31-7.78-1.99-11.85-3.22-19.38
						C1063.56,1779.19,1047.68,1776.63,1040.83,1765.7z"/>
					<path class="st33" d="M1097.43,1764.93c-2.17,1.47-4.36,2.76-6.57,3.96c1.16,8.8,1.81,13.64,3.07,22.81
						c2.36-1.3,3.54-1.95,5.91-3.25c-0.01-10.21-0.01-15.68-0.02-25.26C1099.02,1763.78,1098.25,1764.38,1097.43,1764.93z"/>
				</g>
			</g>
		</g>
	</g>
	<g>
		<path d="M1016.69,2074.49v-11.07h-24.83v19.64h21.4v8.26h-21.4v21.8h8.44v8.26h-26.81v-8.26h8.35v-49.7h-8.35v-8.26h51.37v19.34
			H1016.69z"/>
		<path d="M1046.92,2063.41v49.7h7.21v8.26h-24.39v-8.26h7.16v-49.7h-7.16v-8.26h24.39v8.26H1046.92z"/>
		<path d="M1110.73,2063.41h-9.45v-8.26h27.16v8.26h-9.71v58.67h-10.28l-31.77-56.6v47.64h9.49v8.26h-27.11v-8.26h9.45v-49.7h-9.45
			v-8.26h22.59l29.09,51.46V2063.41z"/>
		<path d="M1197.04,2087.27c0,11.34-3.42,19.86-10.26,25.55s-17.01,8.55-30.52,8.55h-24.74v-8.26h8.88v-49.7h-8.88v-8.26h25.18
			c13.56,0,23.68,2.56,30.34,7.69S1197.04,2076.11,1197.04,2087.27z M1186.14,2087.71c0-5.62-0.99-10.21-2.97-13.75
			c-1.98-3.54-5.11-6.19-9.4-7.93c-4.29-1.74-9.95-2.61-16.98-2.61h-6.37v49.7h6.28c10.2,0,17.65-2.04,22.37-6.13
			C1183.79,2102.9,1186.14,2096.47,1186.14,2087.71z"/>
		<path d="M1292.54,2087.27c0,11.34-3.42,19.86-10.26,25.55s-17.01,8.55-30.52,8.55h-24.74v-8.26h8.88v-49.7h-8.88v-8.26h25.18
			c13.56,0,23.68,2.56,30.34,7.69S1292.54,2076.11,1292.54,2087.27z M1281.64,2087.71c0-5.62-0.99-10.21-2.97-13.75
			c-1.98-3.54-5.11-6.19-9.4-7.93c-4.29-1.74-9.95-2.61-16.98-2.61h-6.37v49.7h6.28c10.2,0,17.65-2.04,22.37-6.13
			C1279.28,2102.9,1281.64,2096.47,1281.64,2087.71z"/>
		<path d="M1317.1,2063.41v49.7h7.21v8.26h-24.39v-8.26h7.16v-49.7h-7.16v-8.26h24.39v8.26H1317.1z"/>
		<path d="M1380.91,2063.41h-9.45v-8.26h27.16v8.26h-9.71v58.67h-10.28l-31.77-56.6v47.64h9.49v8.26h-27.11v-8.26h9.45v-49.7h-9.45
			v-8.26h22.59l29.09,51.46V2063.41z"/>
		<path d="M1420.68,2063.41v49.7h7.21v8.26h-24.39v-8.26h7.16v-49.7h-7.16v-8.26h24.39v8.26H1420.68z"/>
		<path d="M1484.49,2063.41h-9.45v-8.26h27.16v8.26h-9.71v58.67h-10.28l-31.77-56.6v47.64h9.49v8.26h-27.11v-8.26h9.45v-49.7h-9.45
			v-8.26h22.59l29.09,51.46V2063.41z"/>
		<path d="M1565.39,2062.45v-7.29h8.44v21.75h-8.44c-1.93-4.25-4.99-7.65-9.16-10.2c-4.17-2.55-8.56-3.82-13.16-3.82
			c-4.57,0-8.64,1.08-12.22,3.23c-3.57,2.15-6.35,5.12-8.33,8.9c-1.98,3.78-2.97,8.07-2.97,12.88c0,5.04,1.04,9.51,3.12,13.4
			s4.97,6.93,8.68,9.1s7.93,3.25,12.68,3.25c3.6,0,6.95-0.66,10.04-1.98c3.09-1.32,5.65-3.19,7.69-5.62s3.3-5.21,3.8-8.35h-12.17
			v-8.35h24.13v2.15c0,6.3-1.44,11.79-4.31,16.48s-6.83,8.28-11.89,10.77c-5.05,2.49-10.73,3.74-17.03,3.74
			c-7.18,0-13.47-1.44-18.87-4.33c-5.41-2.88-9.55-6.92-12.44-12.11s-4.33-11.21-4.33-18.06c0-6.53,1.44-12.38,4.33-17.53
			s6.86-9.18,11.93-12.06c5.07-2.88,10.81-4.33,17.23-4.33C1551.23,2054.05,1558.98,2056.85,1565.39,2062.45z"/>
	</g>
	<g>
		<rect x="1127.7" y="2194.61" class="st34" width="430.3" height="118.3"/>
		<path d="M1175.15,2235.79c-0.53,1.2-1.33,2.35-2.41,3.46c-1.08,1.1-2.32,2.16-3.71,3.17c-2.64,1.82-5.46,3.28-8.46,4.36
			c-3,1.08-6.18,1.62-9.54,1.62c-1.1,0-2.41-0.04-3.92-0.11c-1.51-0.07-2.94-0.32-4.28-0.76c-1.34-0.43-2.48-1.09-3.42-1.98
			c-0.94-0.89-1.4-2.17-1.4-3.85c0-2.3,0.47-4.67,1.4-7.09c0.94-2.42,2.26-4.69,3.96-6.8c1.7-2.11,3.72-3.95,6.05-5.51
			c2.33-1.56,4.86-2.63,7.6-3.2c-2.16-0.72-3.68-1.78-4.57-3.17c-0.89-1.39-1.33-2.93-1.33-4.61c0-2.74,0.58-5.15,1.73-7.24
			c1.15-2.09,2.72-3.85,4.72-5.29c1.99-1.44,4.3-2.53,6.91-3.28c2.62-0.74,5.41-1.12,8.39-1.12c1.87,0,3.46,0.07,4.75,0.22
			c1.3,0.14,2.33,0.4,3.1,0.76c0.77,0.36,1.32,0.84,1.66,1.44c0.33,0.6,0.5,1.36,0.5,2.27c0,0.34-0.03,0.7-0.07,1.08
			c-0.05,0.38-0.12,0.77-0.22,1.15l-12.24,4.46c0.24-0.33,0.48-0.73,0.72-1.19s0.46-0.91,0.65-1.37c0.19-0.46,0.35-0.89,0.47-1.3
			c0.12-0.41,0.18-0.73,0.18-0.97c0-0.72-0.77-1.08-2.3-1.08c-0.77,0-1.6,0.34-2.48,1.01c-0.89,0.67-1.7,1.56-2.45,2.66
			c-0.75,1.1-1.37,2.34-1.87,3.71c-0.5,1.37-0.76,2.75-0.76,4.14c0,0.58,0.07,1.16,0.22,1.76c0.14,0.6,0.42,1.18,0.83,1.73
			c0.41,0.55,0.98,1.09,1.73,1.62s1.69,1.01,2.84,1.44l-1.37,3.02c-1.58,0.53-3.01,1.1-4.28,1.73c-1.27,0.62-2.41,1.3-3.42,2.02
			c-1.01,0.72-1.93,1.5-2.77,2.34s-1.64,1.72-2.41,2.63c-0.72,0.86-1.36,1.76-1.91,2.7c-0.55,0.94-1.03,1.87-1.44,2.81
			c-0.41,0.94-0.72,1.83-0.94,2.66c-0.22,0.84-0.32,1.6-0.32,2.27c0,1.01,0.33,1.8,1.01,2.38c0.67,0.58,1.75,0.86,3.24,0.86
			c1.68,0,3.52-0.28,5.51-0.83c1.99-0.55,3.91-1.3,5.76-2.23c1.85-0.94,3.5-2.03,4.97-3.28c1.46-1.25,2.53-2.59,3.2-4.03
			L1175.15,2235.79z"/>
		<path d="M1211.29,2235.79c-0.62,1.44-1.75,2.9-3.38,4.39c-1.63,1.49-3.49,2.84-5.58,4.07c-2.09,1.22-4.27,2.22-6.55,2.99
			c-2.28,0.77-4.36,1.15-6.23,1.15c-1.68,0-2.98-0.42-3.89-1.26c-0.91-0.84-1.37-1.96-1.37-3.35c0-0.86,0.3-2.06,0.9-3.6
			c0.6-1.54,1.32-3.21,2.16-5.04c0.84-1.82,1.72-3.65,2.63-5.47c0.91-1.82,1.66-3.46,2.23-4.9c0.14-0.43,0.24-0.77,0.29-1.01
			c0.05-0.24,0.07-0.46,0.07-0.65c0-0.58-0.34-0.86-1.01-0.86c-0.62,0-1.18,0.16-1.66,0.47c-0.48,0.31-0.84,0.76-1.08,1.33
			l-10.66,24.12h-12.02l14.26-32.11l7.56,3.96c1.2-1.15,2.66-1.86,4.39-2.12c1.73-0.26,3.41-0.4,5.04-0.4
			c1.82,0,3.23,0.48,4.21,1.44c0.98,0.96,1.48,2.28,1.48,3.96c0,0.91-0.19,1.98-0.58,3.2c-0.38,1.22-0.86,2.51-1.44,3.85
			c-0.58,1.34-1.19,2.7-1.84,4.07c-0.65,1.37-1.21,2.65-1.69,3.85c-0.34,0.67-0.5,1.22-0.5,1.66c0,0.72,0.43,1.08,1.3,1.08
			c0.77,0,1.7-0.26,2.81-0.79c1.1-0.53,2.18-1.18,3.24-1.94c1.06-0.77,2.02-1.6,2.88-2.48c0.86-0.89,1.46-1.69,1.8-2.41
			L1211.29,2235.79z"/>
		<path d="M1231.23,2235.79c-1.01,2.54-3.14,4.92-6.41,7.13c-1.73,1.15-3.59,2.16-5.58,3.02c-1.99,0.86-3.9,1.46-5.72,1.8
			l-2.16,4.82c-0.58,1.34-1.36,2.58-2.34,3.71c-0.98,1.13-2.11,2.09-3.38,2.88c-1.27,0.79-2.64,1.4-4.1,1.84
			c-1.46,0.43-2.96,0.65-4.5,0.65c-2.98,0-5.05-0.48-6.23-1.44c-1.18-0.96-1.76-2.33-1.76-4.1c0-2.16,0.53-4.07,1.58-5.72
			c1.06-1.66,2.39-3.11,4-4.36c1.61-1.25,3.37-2.3,5.29-3.17s3.74-1.58,5.47-2.16l11.02-24.62l9.07,4.97l-8.78,19.8
			c1.34-0.05,2.68-0.35,4-0.9c1.32-0.55,2.54-1.22,3.67-2.02c1.13-0.79,2.11-1.63,2.95-2.52c0.84-0.89,1.43-1.69,1.76-2.41
			L1231.23,2235.79z M1203.3,2246.52c-0.96,0.48-1.9,1.04-2.81,1.69c-0.91,0.65-1.73,1.36-2.45,2.12c-0.72,0.77-1.3,1.54-1.73,2.3
			c-0.43,0.77-0.65,1.49-0.65,2.16c0,0.62,0.41,0.94,1.22,0.94c0.86,0,1.82-0.66,2.88-1.98
			C1200.83,2252.44,1202,2250.02,1203.3,2246.52z M1232.89,2205.84c0,0.91-0.3,1.74-0.9,2.48c-0.6,0.74-1.34,1.37-2.23,1.87
			c-0.89,0.5-1.86,0.9-2.92,1.19c-1.06,0.29-2.04,0.43-2.95,0.43c-1.39,0-2.56-0.3-3.49-0.9c-0.94-0.6-1.4-1.33-1.4-2.2
			c0-0.77,0.26-1.52,0.79-2.27s1.22-1.4,2.09-1.98c0.86-0.58,1.84-1.03,2.92-1.37c1.08-0.33,2.17-0.5,3.28-0.5
			c1.2,0,2.3,0.29,3.31,0.86C1232.39,2204.04,1232.89,2204.83,1232.89,2205.84z"/>
		<path d="M1268.31,2224.49c-2.64,2.79-6.77,4.46-12.38,5.04c-1.63,4.18-3.22,7.51-4.75,10.01c-1.54,2.5-3.13,4.39-4.79,5.69
			c-1.66,1.3-3.42,2.15-5.29,2.56c-1.87,0.41-3.91,0.61-6.12,0.61c-3.5,0-5.95-0.51-7.34-1.55c-1.39-1.03-2.09-2.44-2.09-4.21
			c0-1.73,0.6-3.86,1.8-6.41l3.31-7.2c1.01-2.16,2.05-3.98,3.13-5.47c1.08-1.49,2.21-2.67,3.38-3.56c1.18-0.89,2.4-1.52,3.67-1.91
			c1.27-0.38,2.6-0.58,4-0.58c0.82,0,1.44,0.01,1.87,0.04c0.43,0.02,0.79,0.08,1.08,0.18c1.73-1.58,3.86-2.38,6.41-2.38
			c1.63,0,2.83,0.34,3.6,1.01c0.77,0.67,1.15,1.63,1.15,2.88c0,1.34-0.43,2.95-1.3,4.82c0.48,0.1,0.9,0.18,1.26,0.25
			c0.36,0.07,0.71,0.11,1.04,0.11c0.96,0,1.98-0.18,3.06-0.54c1.08-0.36,2.22-1,3.42-1.91L1268.31,2224.49z M1246.43,2226.65
			c-0.48-0.29-0.83-0.71-1.04-1.26c-0.22-0.55-0.32-1.14-0.32-1.76c0-0.43,0.02-0.77,0.07-1.01c-0.48,0.24-0.9,0.59-1.26,1.04
			s-0.76,1.21-1.19,2.27l-6.62,15.12c-0.24,0.53-0.36,1.01-0.36,1.44c0,0.91,0.41,1.37,1.22,1.37c0.53,0,1.04-0.18,1.55-0.54
			c0.5-0.36,0.92-0.88,1.26-1.55L1246.43,2226.65z M1253.48,2223.41c0.14-0.24,0.28-0.55,0.4-0.94c0.12-0.38,0.18-0.77,0.18-1.15
			c0-0.48-0.08-0.88-0.25-1.19c-0.17-0.31-0.47-0.47-0.9-0.47c-1.15,0-1.73,0.55-1.73,1.66
			C1251.18,2222.71,1251.95,2223.41,1253.48,2223.41z"/>
		<path d="M1297.04,2235.79c-0.53,1.15-1.39,2.35-2.59,3.6c-1.2,1.25-2.54,2.38-4.03,3.38c-1.49,1.01-3,1.85-4.54,2.52
			c-1.54,0.67-2.86,1.01-3.96,1.01c-0.77,0-1.49-0.19-2.16-0.58l-2.95,6.84c-2.54,6.05-7.73,9.07-15.55,9.07
			c-5.42,0-8.14-1.75-8.14-5.26c0-1.3,0.29-2.52,0.86-3.67s1.36-2.2,2.34-3.13c0.98-0.94,2.12-1.75,3.42-2.45
			c1.3-0.7,2.66-1.21,4.1-1.55c-3.55-0.67-5.33-2.88-5.33-6.62c0-0.96,0.16-2.09,0.47-3.38c0.31-1.3,0.76-2.57,1.33-3.82l6.98-15.7
			l8.5,4.97l-6.84,15.41c-0.38,0.86-0.58,1.58-0.58,2.16c0,0.67,0.29,1.01,0.86,1.01c1.25,0,2.21-0.72,2.88-2.16l10.15-22.75
			l8.5,6.34l-7.13,15.91c-0.53,1.06-0.79,1.92-0.79,2.59c0,0.72,0.41,1.08,1.22,1.08c0.77,0,1.69-0.26,2.77-0.79
			s2.16-1.18,3.24-1.94c1.08-0.77,2.05-1.6,2.92-2.48c0.86-0.89,1.49-1.69,1.87-2.41L1297.04,2235.79z M1267.74,2246.16
			c-1.2,0.82-2.2,1.55-2.99,2.2c-0.79,0.65-1.45,1.45-1.98,2.41c-0.67,1.2-1.13,2.09-1.37,2.66s-0.36,1.03-0.36,1.37
			c0,0.62,0.41,0.94,1.22,0.94c0.77,0,1.37-0.41,1.8-1.22c0.53-0.91,1.08-2.04,1.66-3.38
			C1266.3,2249.78,1266.97,2248.13,1267.74,2246.16z"/>
		<path d="M1353.13,2235.79c-0.58,1.25-1.51,2.52-2.81,3.82c-1.3,1.3-2.8,2.48-4.5,3.56s-3.5,2.03-5.4,2.84
			c-1.9,0.82-3.71,1.39-5.44,1.73c-1.06,2.64-2.22,4.85-3.49,6.62c-1.27,1.77-2.62,3.2-4.03,4.28c-1.42,1.08-2.89,1.85-4.43,2.3
			c-1.54,0.46-3.05,0.68-4.54,0.68c-2.4,0-4.36-0.54-5.87-1.62s-2.27-2.65-2.27-4.72c0-1.68,0.4-3.24,1.19-4.68
			c0.79-1.44,1.91-2.74,3.35-3.89c1.44-1.15,3.14-2.16,5.11-3.02c1.97-0.86,4.13-1.58,6.48-2.16c0.29-0.48,0.61-1.1,0.97-1.87
			c0.36-0.77,0.66-1.39,0.9-1.87c-0.82,0.48-1.9,0.91-3.24,1.3c-1.34,0.38-2.81,0.58-4.39,0.58c-2.93,0-5.18-0.56-6.77-1.69
			c-1.58-1.13-2.38-2.77-2.38-4.93c0-1.97,0.65-4.44,1.94-7.42l8.57-19.44c0.96-2.21,2.09-4.07,3.38-5.58
			c1.3-1.51,2.77-2.72,4.43-3.64c1.66-0.91,3.5-1.57,5.54-1.98c2.04-0.41,4.28-0.61,6.73-0.61c3.65,0,6.31,0.34,7.99,1.01
			c1.68,0.67,2.52,1.9,2.52,3.67c0,0.77-0.1,1.51-0.29,2.23l-12.24,4.46c0.24-0.33,0.48-0.73,0.72-1.19
			c0.24-0.46,0.46-0.91,0.65-1.37c0.19-0.46,0.35-0.89,0.47-1.3c0.12-0.41,0.18-0.73,0.18-0.97c0-0.72-0.77-1.08-2.3-1.08
			c-0.91,0-1.68,0.19-2.3,0.58c-0.62,0.38-1.22,1.22-1.8,2.52l-4.32,9.58l15.41,8.5c-1.34,3.46-2.81,6.88-4.39,10.26
			s-3.14,6.64-4.68,9.76c1.92-0.24,3.43-0.56,4.54-0.97c1.1-0.41,2.13-0.95,3.1-1.62c1.25-0.82,2.38-1.73,3.38-2.74
			s1.7-1.92,2.09-2.74L1353.13,2235.79z M1323.75,2247.6c-1.01,0.29-1.96,0.68-2.84,1.19c-0.89,0.5-1.65,1.07-2.27,1.69
			c-0.62,0.62-1.12,1.28-1.48,1.98c-0.36,0.7-0.54,1.4-0.54,2.12c0,0.43,0.17,0.73,0.5,0.9c0.33,0.17,0.7,0.25,1.08,0.25
			c0.43,0,0.8-0.1,1.12-0.29c0.31-0.19,0.59-0.46,0.83-0.79c0.77-1.01,1.43-2.04,1.98-3.1
			C1322.68,2250.5,1323.22,2249.19,1323.75,2247.6z M1329.8,2216.21l-7.13,15.26c-0.14,0.38-0.26,0.73-0.36,1.04
			c-0.1,0.31-0.14,0.61-0.14,0.9c0,1.01,0.65,1.51,1.94,1.51c1.2,0,2.32-0.18,3.35-0.54c1.03-0.36,2.03-0.88,2.99-1.55
			c0.96-1.97,1.94-4.08,2.95-6.34c1.01-2.26,1.94-4.54,2.81-6.84L1329.8,2216.21z"/>
		<path d="M1390.14,2224.49c-2.64,2.79-6.77,4.46-12.38,5.04c-1.63,4.18-3.22,7.51-4.75,10.01c-1.54,2.5-3.13,4.39-4.79,5.69
			c-1.66,1.3-3.42,2.15-5.29,2.56c-1.87,0.41-3.91,0.61-6.12,0.61c-3.5,0-5.95-0.51-7.34-1.55c-1.39-1.03-2.09-2.44-2.09-4.21
			c0-1.73,0.6-3.86,1.8-6.41l3.31-7.2c1.01-2.16,2.05-3.98,3.13-5.47c1.08-1.49,2.21-2.67,3.38-3.56c1.18-0.89,2.4-1.52,3.67-1.91
			c1.27-0.38,2.6-0.58,4-0.58c0.82,0,1.44,0.01,1.87,0.04c0.43,0.02,0.79,0.08,1.08,0.18c1.73-1.58,3.86-2.38,6.41-2.38
			c1.63,0,2.83,0.34,3.6,1.01c0.77,0.67,1.15,1.63,1.15,2.88c0,1.34-0.43,2.95-1.3,4.82c0.48,0.1,0.9,0.18,1.26,0.25
			c0.36,0.07,0.71,0.11,1.04,0.11c0.96,0,1.98-0.18,3.06-0.54c1.08-0.36,2.22-1,3.42-1.91L1390.14,2224.49z M1368.25,2226.65
			c-0.48-0.29-0.83-0.71-1.04-1.26c-0.22-0.55-0.32-1.14-0.32-1.76c0-0.43,0.02-0.77,0.07-1.01c-0.48,0.24-0.9,0.59-1.26,1.04
			s-0.76,1.21-1.19,2.27l-6.62,15.12c-0.24,0.53-0.36,1.01-0.36,1.44c0,0.91,0.41,1.37,1.22,1.37c0.53,0,1.04-0.18,1.55-0.54
			c0.5-0.36,0.92-0.88,1.26-1.55L1368.25,2226.65z M1375.3,2223.41c0.14-0.24,0.28-0.55,0.4-0.94c0.12-0.38,0.18-0.77,0.18-1.15
			c0-0.48-0.08-0.88-0.25-1.19c-0.17-0.31-0.47-0.47-0.9-0.47c-1.15,0-1.73,0.55-1.73,1.66
			C1373,2222.71,1373.77,2223.41,1375.3,2223.41z"/>
		<path d="M1420.95,2224.49c-2.64,2.79-6.77,4.46-12.38,5.04c-1.63,4.18-3.22,7.51-4.75,10.01c-1.54,2.5-3.13,4.39-4.79,5.69
			c-1.66,1.3-3.42,2.15-5.29,2.56c-1.87,0.41-3.91,0.61-6.12,0.61c-3.5,0-5.95-0.51-7.34-1.55c-1.39-1.03-2.09-2.44-2.09-4.21
			c0-1.73,0.6-3.86,1.8-6.41l3.31-7.2c1.01-2.16,2.05-3.98,3.13-5.47c1.08-1.49,2.21-2.67,3.38-3.56c1.18-0.89,2.4-1.52,3.67-1.91
			c1.27-0.38,2.6-0.58,4-0.58c0.82,0,1.44,0.01,1.87,0.04c0.43,0.02,0.79,0.08,1.08,0.18c1.73-1.58,3.86-2.38,6.41-2.38
			c1.63,0,2.83,0.34,3.6,1.01c0.77,0.67,1.15,1.63,1.15,2.88c0,1.34-0.43,2.95-1.3,4.82c0.48,0.1,0.9,0.18,1.26,0.25
			c0.36,0.07,0.71,0.11,1.04,0.11c0.96,0,1.98-0.18,3.06-0.54c1.08-0.36,2.22-1,3.42-1.91L1420.95,2224.49z M1399.06,2226.65
			c-0.48-0.29-0.83-0.71-1.04-1.26c-0.22-0.55-0.32-1.14-0.32-1.76c0-0.43,0.02-0.77,0.07-1.01c-0.48,0.24-0.9,0.59-1.26,1.04
			s-0.76,1.21-1.19,2.27l-6.62,15.12c-0.24,0.53-0.36,1.01-0.36,1.44c0,0.91,0.41,1.37,1.22,1.37c0.53,0,1.04-0.18,1.55-0.54
			c0.5-0.36,0.92-0.88,1.26-1.55L1399.06,2226.65z M1406.12,2223.41c0.14-0.24,0.28-0.55,0.4-0.94c0.12-0.38,0.18-0.77,0.18-1.15
			c0-0.48-0.08-0.88-0.25-1.19c-0.17-0.31-0.47-0.47-0.9-0.47c-1.15,0-1.73,0.55-1.73,1.66
			C1403.81,2222.71,1404.58,2223.41,1406.12,2223.41z"/>
		<path d="M1449.53,2235.79c-0.58,1.34-1.66,2.75-3.24,4.21c-1.58,1.46-3.41,2.82-5.47,4.07c-2.06,1.25-4.24,2.28-6.52,3.1
			c-2.28,0.82-4.38,1.22-6.3,1.22c-1.2,0-2.05-0.23-2.56-0.68s-0.92-1.02-1.26-1.69c-0.53,0.43-1.07,0.79-1.62,1.08
			c-0.55,0.29-1.15,0.53-1.8,0.72c-0.65,0.19-1.38,0.34-2.2,0.43c-0.82,0.1-1.75,0.14-2.81,0.14c-1.68,0-3.13-0.47-4.36-1.4
			c-1.22-0.94-1.84-2.41-1.84-4.43c0-0.96,0.17-2.12,0.5-3.49c0.33-1.37,0.89-2.89,1.66-4.57l1.22-2.66
			c2.35-5.14,4.9-8.81,7.63-11.02c2.74-2.21,5.47-3.31,8.21-3.31c1.06,0,1.91,0.08,2.56,0.25c0.65,0.17,1.16,0.37,1.55,0.61
			l10.66-23.76h11.95l-19.8,43.49c-0.24,0.53-0.36,1.03-0.36,1.51c0,0.67,0.36,1.01,1.08,1.01c0.67,0,1.51-0.2,2.52-0.61
			c1.01-0.41,2.04-0.96,3.1-1.66c1.06-0.7,2.06-1.51,3.02-2.45c0.96-0.94,1.73-1.91,2.3-2.92L1449.53,2235.79z M1430.89,2222.98
			c-0.24-0.38-0.65-0.58-1.22-0.58s-1.09,0.16-1.55,0.47c-0.46,0.31-0.88,0.9-1.26,1.76l-7.06,16.06c-0.38,0.77-0.58,1.37-0.58,1.8
			c0,0.67,0.29,1.01,0.86,1.01c1.06,0,1.92-0.74,2.59-2.23L1430.89,2222.98z"/>
	</g>
</g>
<g>
</g>
<g>
</g>
<g>
</g>
<g>
</g>
<g>
</g>
<g>
</g>
<g>
</g>
<g>
</g>
<g>
</g>
<g>
</g>
<g>
</g>
<g>
</g>
<g>
</g>
<g>
</g>
<g>
</g>
</svg>
